grupoBio	registros	especies	especies_amenazadas	especies_cr_mads	especies_en_mads	especies_vu_mads	registros_amenazadas	registros_cr_mads	registros_en_mads	registros_vu_mads	especies_cites	especies_cites_i	especies_cites_i_ii	especies_cites_ii	especies_cites_iii	registros_cites	registros_cites_i	registros_cites_i_ii	registros_cites_ii	registros_cites_iii	especies_endemicas	especies_exoticas	especies_migratorias	registros_endemicas	registros_exoticas	registros_migratorias	especies_invasoras	registros_invasoras	especies_invasoras_griis	registros_invasoras_griis	especies_iucn	especies_ew_iucn	especies_cr_iucn	especies_en_iucn	especies_vu_iucn	especies_nt_iucn	especies_lc_iucn	especies_dd_iucn	especies_lr_lc_iucn	especies_lr_nt_iucn	registros_iucn	registros_ew_iucn	registros_cr_iucn	registros_en_iucn	registros_vu_iucn	registros_nt_iucn	registros_lc_iucn	registros_dd_iucn	registros_lr_lc_iucn	registros_lr_nt_iucn
Abejas	2238	41	2	1	0	1	6	1	0	5	0	0	0	0	0	0	0	0	0	0	0	1	0	0	208	0	0	0	0	0	4	0	0	0	0	0	1	3	0	0	14	0	0	0	0	0	1	13	0	0
Algas	1362	30	0				0				0					0					0	0		0	0						0										0									
Anfibios	14655	144	7	1	3	3	165	2	65	98	3	0	0	3	0	800	0	0	800	0	0	1	0	0	980	0	0	0	1	980	131	0	4	11	16	5	88	7	0	0	11955	0	110	538	1912	346	8925	124	0	0
Animales	353349	3703	85	13	21	51	4853	1131	1057	2665	221	15	1	191	14	41097	432	3	37857	2805	160	36	94	8087	3183	27435	8	47	19	2920	1557	0	11	25	58	51	1357	55	0	0	289638	0	890	1681	5727	4880	275692	768	0	0
Arácnidos	946	99	3	0	2	1	6	0	4	2	0	0	0	0	0	0	0	0	0	0	0	2	0	0	4	0	0	0	0	0	1	0	0	0	0	0	1	0	0	0	48	0	0	0	0	0	48	0	0	0
Aves	265044	1012	33	8	12	13	3563	757	954	1852	174	6	0	161	7	36220	94	0	35393	733	25	9	94	4562	1729	27435	0	0	5	1723	927	0	2	8	17	28	872	0	0	0	254228	0	707	648	3149	3971	245753	0	0	0
Cactus	254	35	0	0	0	0	0	0	0	0	19	0	0	19	0	116	0	0	116	0	2	0	0	3	0	0	0	0	0	0	20	0	0	1	2	0	16	1	0	0	125	0	0	1	33	0	89	2	0	0
Dipteros	5880	118	0	0	0	0	0	0	0	0	0	0	0	0	0	0	0	0	0	0	0	2	0	0	95	0	0	0	0	0	0	0	0	0	0	0	0	0	0	0	0	0	0	0	0	0	0	0	0	0
Escarabajos	12384	260	1	0	0	1	4	0	0	4	0	0	0	0	0	0	0	0	0	0	0	1	0	0	10	0	0	0	1	10	12	0	0	1	0	2	8	1	0	0	712	0	0	14	0	28	667	3	0	0
Especies Maderables	1272	15	14	5	5	4	1250	395	359	496	1	0	0	1	0	1	0	0	1	0	4	0	0	34	0	0	0	0	0	0	12	0	1	4	3	0	3	0	0	1	1157	0	1	284	379	0	477	0	0	16
Fanerágamas	1327	59	17	2	7	8	211	25	98	88	0	0	0	0	0	0	0	0	0	0	9	1	0	111	8	0	0	0	0	0	35	0	0	1	8	0	23	0	2	1	501	0	0	9	111	0	327	0	38	16
Frailejones	715	40	13	3	7	3	313	47	174	92	0	0	0	0	0	0	0	0	0	0	20	0	0	230	0	0	0	0	0	0	24	0	4	5	5	1	7	2	0	0	362	0	49	48	218	1	42	4	0	0
Helechos y afines	7066	724	0	0	0	0	0	0	0	0	24	0	0	24	0	260	0	0	260	0	15	4	0	51	61	0	0	0	2	12	7	0	0	0	0	0	6	1	0	0	29	0	0	0	0	0	22	7	0	0
Hongos	4754	419	0	0	0	0	0	0	0	0	0	0	0	0	0	0	0	0	0	0	1	0	0	1	0	0	0	0	0	0	5	0	0	0	1	2	2	0	0	0	10	0	0	0	1	6	3	0	0	0
Hormigas	4602	154	0	0	0	0	0	0	0	0	0	0	0	0	0	0	0	0	0	0	0	4	0	0	18	0	1	3	0	0	0	0	0	0	0	0	0	0	0	0	0	0	0	0	0	0	0	0	0	0
Insectos	39178	1660	4	1	0	3	11	1	0	10	0	0	0	0	0	0	0	0	0	0	0	8	0	0	331	0	1	3	1	10	31	0	0	1	0	3	23	4	0	0	836	0	0	14	0	45	761	16	0	0
Invertebrados	42632	1912	8	1	3	4	18	1	5	12	0	0	0	0	0	0	0	0	0	0	0	13	0	0	338	0	2	4	3	12	49	0	1	1	0	3	39	5	0	0	1021	0	2	14	0	45	941	19	0	0
Líquenes	2996	297	0	0	0	0	0	0	0	0	0	0	0	0	0	0	0	0	0	0	1	0	0	1	0	0	0	0	0	0	1	0	0	0	0	0	1	0	0	0	2	0	0	0	0	0	2	0	0	0
Magnolias y afines	939	33	11	4	4	3	205	59	68	78	0	0	0	0	0	0	0	0	0	0	7	0	0	122	0	0	0	0	0	0	27	0	3	5	2	0	17	0	0	0	534	0	35	92	16	0	391	0	0	0
Mamíferos	14997	213	10	0	1	9	222	0	3	219	28	9	0	14	5	3303	338	0	1012	1953	14	3	0	312	33	0	0	0	2	31	177	0	1	3	15	6	139	13	0	0	12674	0	21	112	539	334	11325	343	0	0
Mariposas	7918	860	1	0	0	1	1	0	0	1	0	0	0	0	0	0	0	0	0	0	0	0	0	0	0	0	0	0	0	0	8	0	0	0	0	0	8	0	0	0	76	0	0	0	0	0	76	0	0	0
Moluscos	639	49	0	0	0	0	0	0	0	0	0	0	0	0	0	0	0	0	0	0	0	2	0	0	2	0	1	1	2	2	4	0	1	0	0	0	3	0	0	0	12	0	2	0	0	0	10	0	0	0
Musgos y afines	7826	661	11	0	0	11	25	0	0	25	0	0	0	0	0	0	0	0	0	0	7	0	0	29	0	0	0	0	0	0	0	0	0	0	0	0	0	0	0	0	0	0	0	0	0	0	0	0	0	0
Orquídeas	2445	524	32	1	16	15	75	2	27	46	270	4	0	266	0	760	14	0	746	0	105	3	0	260	25	0	0	0	0	0	19	0	0	3	0	0	14	2	0	0	75	0	0	9	0	0	64	2	0	0
Palmas	1439	87	20	2	9	9	401	41	217	143	0	0	0	0	0	0	0	0	0	0	14	2	0	242	24	0	0	0	1	20	12	0	1	2	3	0	4	0	0	2	279	0	3	26	145	0	88	0	0	17
Peces	7263	228	20	1	1	18	769	360	27	382	1	0	0	0	1	118	0	0	0	118	121	7	0	3213	73	0	6	43	8	174	132	0	1	2	7	6	95	21	0	0	3953	0	39	369	109	137	3051	248	0	0
Pinos y afines	30	9	0	0	0	0	0	0	0	0	0	0	0	0	0	0	0	0	0	0	0	3	0	0	12	0	0	0	2	9	1	0	0	0	0	0	1	0	0	0	2	0	0	0	0	0	2	0	0	0
Plantas	129804	8166	157	24	68	65	4681	569	3074	1038	325	4	0	321	0	3190	14	0	3176	0	961	175	0	7417	2029	0	4	53	20	341	1532	3	32	73	67	23	1301	16	10	7	32673	24	465	862	3335	169	27072	69	635	42
Reptiles	8603	194	7	2	1	4	116	11	3	102	15	0	1	13	1	656	0	3	652	1	0	3	0	0	30	0	0	0	0	0	141	0	2	0	3	3	124	9	0	0	5807	0	11	0	18	47	5697	34	0	0
Vertebrados	310569	1791	77	12	18	47	4835	1130	1052	2653	221	15	1	191	14	41097	432	3	37857	2805	160	23	94	8087	2845	27435	6	43	16	2908	1508	0	10	24	58	48	1318	50	0	0	288617	0	888	1667	5727	4835	274751	749	0	0
Zamias	324	6	5	0	4	1	319	0	315	4	6	0	0	6	0	320	0	0	320	0	3	0	0	312	0	0	0	0	0	0	5	0	0	1	1	3	0	0	0	0	310	0	0	5	297	8	0	0	0	0
