	county	registros	especies	especiesAmenaza	especiesEN	especiesCR	especiesVU	registrosAmenaza	registrosCR	registrosEN	registrosVU	especiesCites	especiesCitesI	especiesCitesII	especiesCitesIII	registrosCites	registrosCitesI	registrosCitesII	registrosCitesIII	especiesEndemicas	especiesExoticas	especiesMigratorias	registrosEndemicas	registrosExoticas	registrosMigratorias	especiesInvasora	registrosInvasora	especiesInvasora GRIIS	registrosInvasora GRIIS	especiesthreatStatus_UICN	especiesEW_UICN	especiesCR_UICN	especiesEN_UICN	especiesVU_UICN	especiesNT_UICN	especiesLC_UICN	registrosthreatStatus_UICN	registrosEW_UICN	registrosCR_UICN	registrosEN_UICN	registrosVU_UICN	registrosNT_UICN	registrosLC_UICN	registrosDD_UICN	registrosisInvasive_griis	registrosisInvasive_mads	registrosMigratorio	especiesisInvasive_griis	especiesisInvasive_mads	especiesMigratorio	registrosEndemicas2	registrosExoticas2	registrosLR/lc_UICN	registrosLR/nt_UICN	especiesEndemicas2	especiesExoticas2	especiesLR/lc_UICN	especiesLR/nt_UICN
0	Albán	119	91	0	0	0	0	0	0	0	0	0	0	0	0	0	0	0	0	3	5	4	3	5	4	0	0	1	1	27	1	1	1	0	0	24	30	1	1	1	0	0	27	0	1	0	4	1	0	4	3	5	0	0	3	5	0	0
1	Aldana	14	11	0	0	0	0	0	0	0	0	0	0	0	0	0	0	0	0	0	0	0	0	0	0	0	0	0	0	1	0	0	0	0	0	1	1	0	0	0	0	0	1	0	0	0	0	0	0	0	0	0	0	0	0	0	0	0
2	Ancuya	140	66	0	0	0	0	0	0	0	0	5	0	5	0	17	0	17	0	3	6	2	3	7	2	0	0	0	0	32	0	0	0	0	0	32	63	0	0	0	0	0	63	0	0	0	2	0	0	2	3	7	0	0	3	6	0	0
3	Arboleda	703	139	0	0	0	0	0	0	0	0	14	0	14	0	27	0	27	0	2	3	6	8	6	42	0	0	3	6	92	0	0	0	0	2	90	507	0	0	0	0	2	505	0	6	0	42	3	0	6	8	6	0	0	2	3	0	0
4	Barbacoas	40015	2451	40	19	1	20	642	1	287	354	118	0	114	4	4871	0	4400	471	151	21	35	494	54	1139	0	0	7	31	915	3	3	16	22	32	827	28081	5	4	75	453	913	26605	13	31	0	1139	7	0	35	494	54	11	2	151	21	2	1
5	Belén	37	27	0	0	0	0	0	0	0	0	3	0	3	0	3	0	3	0	0	0	3	0	0	5	0	0	0	0	25	0	0	0	0	0	25	30	0	0	0	0	0	30	0	0	0	5	0	0	3	0	0	0	0	0	0	0	0
6	Buesaco	3551	465	6	0	2	4	25	5	0	20	43	1	42	0	412	2	410	0	17	8	14	42	15	198	0	0	2	4	219	0	0	1	1	4	212	2795	0	0	1	1	17	2771	5	4	0	198	2	0	14	42	15	0	0	17	8	0	0
7	Chachagüí	1675	392	2	0	0	2	32	0	0	32	27	0	27	0	111	0	111	0	11	12	19	20	25	146	0	0	5	15	189	0	0	0	0	3	185	1139	0	0	0	0	4	1134	1	15	0	146	5	0	19	20	25	0	0	11	12	0	0
8	Colón	1388	205	1	0	0	1	4	0	0	4	19	0	19	0	85	0	85	0	7	9	8	128	88	56	0	0	1	5	142	1	0	1	1	3	136	835	7	0	10	1	4	813	0	5	0	56	1	0	8	128	88	0	0	7	9	0	0
9	Consacá	4622	419	2	1	1	0	2	1	1	0	34	1	32	1	416	7	407	2	13	9	12	28	16	237	0	0	2	8	201	0	0	0	2	1	197	2786	0	0	0	10	17	2756	3	8	0	237	2	0	12	28	16	0	0	13	9	0	0
10	Contadero	561	72	0	0	0	0	0	0	0	0	13	1	11	1	102	1	100	1	0	1	5	0	1	23	0	0	1	1	51	0	0	0	0	0	51	518	0	0	0	0	0	518	0	1	0	23	1	0	5	0	1	0	0	0	1	0	0
11	Cuaspud Carlosama	56	40	3	1	2	0	13	11	2	0	1	0	1	0	1	0	1	0	2	0	0	2	0	0	0	0	0	0	6	1	0	1	0	1	3	7	1	0	2	0	1	3	0	0	0	0	0	0	0	2	0	0	0	2	0	0	0
12	Cumbal	3371	788	12	7	1	4	66	7	30	29	53	2	50	1	388	15	372	1	20	12	23	38	42	78	1	3	3	8	291	2	0	3	5	8	272	1750	4	0	8	11	23	1702	2	8	3	78	3	1	23	38	42	0	0	20	12	0	0
13	Cumbitara	660	124	1	1	0	0	1	0	1	0	7	0	7	0	18	0	18	0	2	1	7	19	11	12	0	0	0	0	98	0	0	1	0	2	95	423	0	0	1	0	4	418	0	0	0	12	0	0	7	19	11	0	0	2	1	0	0
14	Córdoba	302	101	1	0	0	1	3	0	0	3	17	0	16	1	49	0	48	1	2	0	1	2	0	3	0	0	0	0	70	0	0	1	0	1	68	232	0	0	2	0	3	227	0	0	0	3	0	0	1	2	0	0	0	2	0	0	0
15	El Charco	159	44	4	1	1	2	44	1	1	42	4	2	2	0	15	13	2	0	1	0	8	1	0	37	0	0	0	0	24	0	0	1	1	0	21	99	0	0	1	12	0	85	0	0	0	37	0	0	8	1	0	0	1	1	0	0	1
16	El Peñol	114	50	0	0	0	0	0	0	0	0	0	0	0	0	0	0	0	0	3	1	0	3	1	0	0	0	0	0	12	0	0	0	0	0	12	12	0	0	0	0	0	12	0	0	0	0	0	0	0	3	1	0	0	3	1	0	0
17	El Rosario	157	67	1	0	0	1	1	0	0	1	2	1	1	0	4	1	3	0	2	1	4	2	2	12	0	0	0	0	26	0	0	0	1	0	24	88	0	0	0	1	0	85	2	0	0	12	0	0	4	2	2	0	0	2	1	0	0
18	El Tablón de Gómez	2388	194	4	0	0	4	40	0	0	40	31	0	31	0	210	0	210	0	9	1	4	94	1	22	0	0	0	0	116	1	0	0	3	1	111	830	1	0	0	52	3	774	0	0	0	22	0	0	4	94	1	0	0	9	1	0	0
19	El Tambo	245	125	2	0	0	2	3	0	0	3	5	0	5	0	9	0	9	0	4	1	4	5	1	8	0	0	0	0	59	0	0	0	1	0	58	124	0	0	0	1	0	123	0	0	0	8	0	0	4	5	1	0	0	4	1	0	0
20	Francisco Pizarro	173	83	1	0	0	1	1	0	0	1	5	1	4	0	5	1	4	0	0	0	0	0	0	0	0	0	0	0	31	0	0	0	1	1	28	39	0	0	0	1	2	35	1	0	0	0	0	0	0	0	0	0	0	0	0	0	0
21	Funes	643	177	2	0	0	2	9	0	0	9	20	0	20	0	85	0	85	0	6	2	2	7	4	16	0	0	1	3	84	0	0	0	0	3	81	420	0	0	0	0	17	403	0	3	0	16	1	0	2	7	4	0	0	6	2	0	0
22	Guachucal	212	104	2	0	0	2	2	0	0	2	21	0	21	0	40	0	40	0	1	2	1	2	3	1	0	0	1	1	69	1	0	0	0	3	65	125	5	0	0	0	3	117	0	1	0	1	1	0	1	2	3	0	0	1	2	0	0
23	Guaitarilla	21	11	0	0	0	0	0	0	0	0	0	0	0	0	0	0	0	0	1	0	0	1	0	0	0	0	0	0	5	0	0	0	0	0	5	8	0	0	0	0	0	8	0	0	0	0	0	0	0	1	0	0	0	1	0	0	0
24	Gualmatán	2216	200	1	0	0	1	8	0	0	8	29	0	29	0	167	0	167	0	8	0	2	52	0	3	0	0	0	0	92	0	0	0	1	3	87	1000	0	0	0	18	17	700	265	0	0	3	0	0	2	52	0	0	0	8	0	0	0
25	Iles	141	84	1	0	0	1	1	0	0	1	7	0	7	0	8	0	8	0	2	0	2	2	0	7	0	0	0	0	44	0	0	0	0	1	43	82	0	0	0	0	1	81	0	0	0	7	0	0	2	2	0	0	0	2	0	0	0
26	Imués	573	224	3	2	0	1	14	0	9	5	13	0	13	0	32	0	32	0	6	7	8	6	11	25	0	0	1	2	87	0	0	0	0	0	87	251	0	0	0	0	0	251	0	2	0	25	1	0	8	6	11	0	0	6	7	0	0
27	Ipiales	3691	896	7	1	0	6	27	0	1	26	54	0	53	1	152	0	150	2	27	7	10	40	20	44	0	0	4	12	385	3	0	1	4	8	368	1263	38	0	1	11	41	1170	0	12	0	44	4	0	10	40	20	0	2	27	7	0	1
28	La Cruz	3182	357	8	3	0	5	23	0	7	16	35	0	35	0	231	0	231	0	13	0	8	63	0	52	0	0	0	0	186	0	0	2	7	2	174	1440	0	0	6	37	8	1346	43	0	0	52	0	0	8	63	0	0	0	13	0	0	0
29	La Florida	967	319	1	0	0	1	3	0	0	3	5	0	5	0	7	0	7	0	16	7	4	25	7	6	1	1	0	0	74	0	2	0	3	0	69	228	0	2	0	6	0	220	0	0	1	6	0	1	4	25	7	0	0	16	7	0	0
30	La Llanada	157	79	1	0	0	1	1	0	0	1	13	0	13	0	21	0	21	0	1	0	4	1	0	8	0	0	0	0	62	0	0	0	0	1	61	113	0	0	0	0	1	112	0	0	0	8	0	0	4	1	0	0	0	1	0	0	0
31	La Tola	1988	235	4	2	0	2	21	0	10	11	13	2	10	1	41	10	29	2	0	1	33	0	2	1089	0	0	1	2	133	0	0	0	2	6	124	1535	0	0	0	10	16	1508	1	2	0	1089	1	0	33	0	2	0	0	0	1	0	0
32	La Unión	3072	431	2	1	0	1	7	0	1	6	30	0	30	0	195	0	195	0	13	10	14	179	51	102	0	0	1	1	209	1	0	4	1	3	198	1874	8	0	11	1	12	1833	8	1	0	102	1	0	14	179	51	1	0	13	10	1	0
33	Leiva	123	70	0	0	0	0	0	0	0	0	1	0	1	0	1	0	1	0	4	0	1	5	0	1	0	0	0	0	22	0	0	0	1	0	20	30	0	0	0	1	0	28	1	0	0	1	0	0	1	5	0	0	0	4	0	0	0
34	Linares	28	17	0	0	0	0	0	0	0	0	0	0	0	0	0	0	0	0	1	0	0	2	0	0	0	0	0	0	11	0	0	0	0	0	11	14	0	0	0	0	0	14	0	0	0	0	0	0	0	2	0	0	0	1	0	0	0
35	Los Andes	1581	196	4	3	0	1	6	0	5	1	13	1	12	0	21	1	20	0	11	2	8	57	6	13	0	0	0	0	111	0	0	2	1	3	105	837	0	0	2	3	3	829	0	0	0	13	0	0	8	57	6	0	0	11	2	0	0
36	Magüí	305	129	0	0	0	0	0	0	0	0	2	0	1	1	4	0	2	2	8	2	0	14	2	0	0	0	0	0	53	0	0	1	1	0	49	82	0	0	3	1	0	76	1	0	0	0	0	0	0	14	2	1	0	8	2	1	0
37	Mallama	2599	994	8	4	0	4	42	0	36	6	40	0	39	1	153	0	137	16	34	10	6	64	19	32	0	0	2	4	298	2	1	1	4	11	278	976	3	1	1	10	63	897	0	4	0	32	2	0	6	64	19	0	1	34	10	0	1
38	Mosquera	953	146	4	3	0	1	36	0	6	30	6	1	5	0	21	3	18	0	3	3	22	6	10	249	1	2	3	10	99	0	0	0	3	1	95	577	0	0	0	4	1	572	0	10	2	249	3	1	22	6	10	0	0	3	3	0	0
39	Nariño	206	100	3	1	0	2	6	0	1	5	1	0	1	0	1	0	1	0	3	2	0	6	2	0	0	0	0	0	22	0	0	1	0	0	21	38	0	0	1	0	0	37	0	0	0	0	0	0	0	6	2	0	0	3	2	0	0
40	Olaya Herrera	202	113	1	1	0	0	1	0	1	0	0	0	0	0	0	0	0	0	4	5	9	4	5	52	0	0	0	0	42	1	0	0	0	0	40	101	1	0	0	0	0	99	0	0	0	52	0	0	9	4	5	1	0	4	5	1	0
41	Ospina	106	92	2	1	0	1	2	0	1	1	15	0	15	0	16	0	16	0	1	1	2	1	1	2	0	0	0	0	60	0	0	0	0	2	58	63	0	0	0	0	2	61	0	0	0	2	0	0	2	1	1	0	0	1	1	0	0
42	Pasto	37483	2415	41	13	6	22	963	215	98	650	143	4	137	2	3481	19	3456	6	115	46	47	621	457	1049	0	0	12	356	623	4	3	8	19	20	562	21525	75	55	34	303	253	20595	210	356	0	1049	12	0	47	621	457	0	0	115	46	0	0
43	Policarpa	1494	219	2	0	0	2	5	0	0	5	27	0	26	1	209	0	192	17	5	2	7	8	15	63	0	0	1	14	174	0	1	0	1	6	166	1267	0	23	0	8	41	1195	0	14	0	63	1	0	7	8	15	0	0	5	2	0	0
44	Potosí	168	94	2	0	0	2	3	0	0	3	16	1	15	0	22	1	21	0	1	1	1	2	1	1	0	0	1	1	50	0	1	0	0	1	48	73	0	1	0	0	2	70	0	1	0	1	1	0	1	2	1	0	0	1	1	0	0
45	Providencia	4	2	nan	nan	nan	nan	0	nan	nan	nan	nan	nan	nan	nan	0	nan	nan	nan	nan	nan	nan	0	0	nan	nan	nan	nan	nan	nan	nan	nan	nan	nan	nan	nan	0	nan	nan	nan	nan	nan	nan	nan	0	0	0	nan	nan	nan	nan	nan	nan	nan	nan	nan	nan	nan
46	Puerres	4503	538	7	1	0	6	25	0	1	24	57	1	56	0	240	1	239	0	17	3	8	195	5	24	0	0	2	4	266	0	0	1	11	7	244	2293	0	0	2	155	39	1947	150	4	0	24	2	0	8	195	5	0	0	17	3	0	0
47	Pupiales	163	95	3	2	0	1	3	0	2	1	16	0	16	0	23	0	23	0	2	1	1	2	1	1	0	0	0	0	62	0	0	1	1	2	58	94	0	0	1	2	3	88	0	0	0	1	0	0	1	2	1	0	0	2	1	0	0
48	Ricaurte	380382	2415	25	9	2	14	5013	2	249	4762	130	3	124	3	23883	6	23715	162	141	15	29	11176	34	745	0	0	3	4	761	2	1	7	23	25	693	153490	20	2	781	2579	661	148748	35	4	0	745	3	0	29	11176	34	662	2	141	15	4	1
49	Roberto Payán	133	81	1	0	0	1	1	0	0	1	12	0	12	0	14	0	14	0	2	0	1	2	0	1	0	0	0	0	75	0	0	0	0	1	73	117	0	0	0	0	1	115	0	0	0	1	0	0	1	2	0	0	1	2	0	0	1
50	Samaniego	170	108	0	0	0	0	0	0	0	0	3	0	3	0	4	0	4	0	5	3	1	5	3	1	0	0	0	0	24	0	0	0	0	0	23	41	0	0	0	0	0	35	6	0	0	1	0	0	1	5	3	0	0	5	3	0	0
51	San Andrés de Tumaco	75962	2260	34	13	2	19	746	13	278	455	88	4	81	3	3525	36	3249	240	52	54	80	117	641	4370	1	2	5	488	922	0	4	8	16	21	858	36598	0	31	29	609	401	35501	17	488	2	4370	5	1	80	117	641	3	7	52	54	2	2
52	San Bernardo	206	116	0	0	0	0	0	0	0	0	5	0	5	0	12	0	12	0	5	0	2	7	0	8	0	0	0	0	31	0	0	0	1	1	29	72	0	0	0	1	2	69	0	0	0	8	0	0	2	7	0	0	0	5	0	0	0
53	San Lorenzo	277	161	0	0	0	0	0	0	0	0	12	0	12	0	22	0	22	0	8	4	3	8	4	6	0	0	1	1	81	0	0	1	0	1	77	136	0	0	1	0	1	129	5	1	0	6	1	0	3	8	4	0	0	8	4	0	0
54	San Pablo	492	107	0	0	0	0	0	0	0	0	18	0	18	0	63	0	63	0	1	1	5	1	1	42	0	0	0	0	92	0	0	0	0	0	91	430	0	0	0	0	0	420	10	0	0	42	0	0	5	1	1	0	0	1	1	0	0
55	San Pedro de Cartago	1027	131	0	0	0	0	0	0	0	0	10	0	10	0	52	0	52	0	4	4	6	210	27	47	0	0	1	1	89	0	0	1	0	1	87	757	0	0	43	0	1	713	0	1	0	47	1	0	6	210	27	0	0	4	4	0	0
56	Sandoná	476	239	1	0	0	1	1	0	0	1	11	0	10	1	17	0	15	2	9	5	2	13	6	3	0	0	0	0	99	0	0	1	2	1	94	170	0	0	2	2	1	158	7	0	0	3	0	0	2	13	6	0	0	9	5	0	0
57	Santa Bárbara	3160	120	2	1	0	1	34	0	22	12	8	1	7	0	24	3	21	0	0	1	30	0	4	1614	0	0	1	4	66	0	0	0	0	3	63	2576	0	0	0	0	105	2471	0	4	0	1614	1	0	30	0	4	0	0	0	1	0	0
58	Santacruz	127	88	2	1	0	1	2	0	1	1	4	0	4	0	4	0	4	0	3	1	0	3	1	0	0	0	1	1	22	0	0	0	0	1	21	30	0	0	0	0	1	29	0	1	0	0	1	0	0	3	1	0	0	3	1	0	0
59	Sapuyes	815	312	8	3	1	4	24	1	6	17	30	0	29	1	72	0	71	1	11	4	6	15	9	10	0	0	1	5	129	2	0	1	1	3	122	331	2	0	1	2	10	316	0	5	0	10	1	0	6	15	9	0	0	11	4	0	0
60	Taminango	3753	296	0	0	0	0	0	0	0	0	20	0	20	0	80	0	80	0	10	11	11	18	15	34	1	1	2	3	144	0	0	2	0	0	140	782	0	0	2	0	0	765	15	3	1	34	2	1	11	18	15	0	0	10	11	0	0
61	Tangua	1743	506	6	2	0	4	13	0	6	7	46	0	46	0	100	0	100	0	19	8	14	86	11	28	0	0	5	7	216	0	0	2	2	3	208	704	0	0	6	62	12	596	28	7	0	28	5	0	14	86	11	0	0	19	8	0	0
62	Túquerres	3227	523	11	3	1	7	28	12	4	12	45	0	44	1	220	0	219	1	19	7	4	53	24	8	0	0	2	4	180	2	0	4	3	6	164	1007	16	0	5	6	28	945	7	4	0	8	2	0	4	53	24	0	0	19	7	0	0
63	Yacuanquer	4956	382	2	0	0	2	12	0	0	12	46	1	44	1	715	4	710	1	4	2	19	16	11	233	0	0	2	11	223	1	0	0	0	5	217	4086	15	0	0	0	34	4037	0	11	0	233	2	0	19	16	11	0	0	4	2	0	0
