oganizacion	pais_publicacion	tipo_organizacion	tipo_publicador	url_logo	registros	registros_continentales	registros_marinos	registros_salobres	especies	especies_continentales	especies_marinas	especies_salobres
A.J. Cook Arthropod Research Collection	US		Internacional		746	746	0	0	212	212		
Academy of Natural Sciences	US		Internacional		22416	22374	101	509	1831	1814	20	4
Administración de Parques Nacionales, Argentina	AR		Internacional		32	32	0	0	1	1		
Aguas de Bogotá S.A. E.S.P.	CO	Empresas	Nacional	https://statics.sibcolombia.net/sib-resources/images/logos-socios/500px/ab.jpg	13280	13280	0	170	170	170		3
American Museum of Natural History	US		Internacional		42793	42706	11	2908	2179	2172	9	10
Anadarko Colombia Company	CO	Empresas	Nacional	https://statics.sibcolombia.net/sib-resources/images/logos-socios/500px/anadarko.jpg	893	62	877	114	31		31	
Angelo State Natural History Collections (ASNHC)	US		Internacional		15	15	0	0	12	12		
AngloGold Ashanti Colombia S.A.S	CO	Empresas	Nacional	https://statics.sibcolombia.net/sib-resources/images/logos-socios/500px/anglogoldashanti.jpg	87019	87019	0	458	1043	1043		3
Archbold Biological Station	US		Internacional		14	14	0	0	14	14		
Arctos	US		Internacional		70	67	3	0	34	32	3	
Arizona State University Biocollections	US		Internacional		653	649	0	28	237	236		1
Asociación Bogotana de Ornitología	CO	Redes/Iniciativas	Nacional	https://statics.sibcolombia.net/sib-resources/images/logos-socios/500px/abo.jpg	8675	8675	0	69	137	137		4
Asociación Colombiana de Ictiólogos	CO	Redes/Iniciativas	Nacional	https://statics.sibcolombia.net/sib-resources/images/logos-socios/500px/acictios.jpg	1450	1450	0	46	358	358		3
Asociación Colombiana de Piscicultura y Pesca - PISPESCA	CO	Redes/Iniciativas	Nacional	https://statics.sibcolombia.net/sib-resources/images/logos-socios/500px/pispesca.jpg	4059	4059	0	5	25	25		
Asociación Colombiana de Zoología	CO	Redes/Iniciativas	Nacional	https://statics.sibcolombia.net/sib-resources/images/logos-socios/ipt/acz.jpg	20252	20226	26	15	69	66	3	1
Asociación GAICA	CO	ONG	Nacional	https://statics.sibcolombia.net/sib-resources/images/logos-socios/500px/gaica.jpg	37574	37574	0	629	706	706		11
Asociación Primatológica Colombiana	CO	Redes/Iniciativas	Nacional	https://statics.sibcolombia.net/sib-resources/images/logos-socios/500px/apc.jpg	1747	1747	0	0	31	31		
Asociación SELVA: Investigación para la Conservación en el Neotrópico	CO	ONG	Nacional	https://statics.sibcolombia.net/sib-resources/images/logos-socios/500px/selva.jpg	33544	33446	48	138	710	702	19	13
Asociación de Becarios del Casanare	CO	ONG	Nacional	https://statics.sibcolombia.net/sib-resources/images/logos-socios/500px/abc.jpg	18943	18943	0	431	1477	1477		11
Asociación para el estudio y conservación de las aves acuáticas en Colombia - Calidris	CO	ONG	Nacional	https://statics.sibcolombia.net/sib-resources/images/logos-socios/500px/calidris.jpg	33213	31912	1141	3291	926	871	73	21
Auburn University Museum	US		Internacional		1629	1629	0	24	163	163		2
Auckland War Memorial Museum	NZ		Internacional		323	323	0	0	129	129		
Aures Bajo	CO	Empresas	Nacional		51	51	0	20				
Australia's Virtual Herbarium	AU		Internacional		214	214	0	8	56	56		1
Australian Museum	AU		Internacional		54	35	18	7	1		1	
Australian Tropical Herbarium	AU		Internacional		8	8	0	0				
Aïgos SAS	CO	Empresas	Nacional	https://statics.sibcolombia.net/sib-resources/images/logos-socios/500px/aigos.jpg	2404	2404	0	0	226	226		
BCCM - Belgian Coordinated Collections of Micro-organisms	BE		Internacional		49	49	0	6	17	17		
Bailey-Matthews National Shell Museum	US		Internacional		314	301	13	6	182	179	5	
Belgian Biodiversity Platform	BE		Internacional		1	1	0	0	1	1		
Berkeley Natural History Museums	US		Internacional		2693	2693	0	690	322	322		
Bernice Pauahi Bishop Museum	US		Internacional		48	47	1	0	38	37	1	
BioFresh	DE		Internacional		46	41	0	5	16	15		1
Biodiversity Data Journal	BG		Internacional		228	228	0	0	28	28		
Biological Collections, California State University Northridge	US		Internacional		1	1	0	0	1	1		
Biologiezentrum Linz Oberoesterreich	AT		Internacional		39	39	0	0	27	27		
Biotica Consultores Ltda	CO	Empresas	Nacional	https://statics.sibcolombia.net/sib-resources/images/logos-socios/500px/biotica.jpg	1318	1318	0	38	443	443		3
Botanic Garden and Botanical Museum Berlin	DE		Internacional		9996	9992	2	19	3085	3083	1	1
Botanical Garden, University of Valencia	ES		Internacional		7	7	0	0	5	5		
Botanical Research Institute of Texas	US		Internacional		15	15	0	0	14	14		
Brigham Young University Life Science Museum	US		Internacional		34	34	0	1	8	8		1
Brigham Young University, Arthropod Collection	US		Internacional		24	24	0	0	11	11		
British Antarctic Survey	GB		Internacional		16	9	7	0	10	6	4	
Brown University Herbarium	US		Internacional		1	1	0	0				
CAR - Corporación Autónoma Regional de Cundinamarca	CO	Autoridades Ambientales	Nacional	https://statics.sibcolombia.net/sib-resources/images/logos-socios/500px/car.jpg	946	946	0	2	118	118		2
CBGP (UMR INRA, Cirad, IRD, Montpellier SupAgro)	FR		Internacional		37	37	0	0	5	5		
CCT CONICET-CENPAT Centro Científico Tecnológico	AR		Internacional		1	1	0	0				
CDMB - Corporación Autónoma Regional Para la Defensa de la Meseta de Bucaramanga	CO	Autoridades Ambientales	Nacional	https://statics.sibcolombia.net/sib-resources/images/logos-socios/500px/cdmb.jpg	11289	11289	0	221	2159	2159		1
CIBIO (Research Center in Biodiversity and Genetic Resources) Portugal	PT		Internacional		18	18	0	0	16	16		
CORNARE - Corporación Autónoma Regional de las cuencas de los ríos Negro y Nare	CO	Autoridades Ambientales	Nacional	https://statics.sibcolombia.net/sib-resources/images/logos-socios/500px/cornare.jpg	12262	12262	0	67	1681	1681		7
CRQ - Corporación Autónoma Regional del Quindío	CO	Autoridades Ambientales	Nacional	https://statics.sibcolombia.net/sib-resources/images/logos-socios/500px/crq.jpg	1227	1227	0	48	68	68		
CSIC-Real Jardín Botánico	ES		Internacional		41956	41950	0	745	7081	7078		6
CSU Los Angeles Herbarium	US		Internacional		1	1	0	0	1	1		
CVC - Corporación Autónoma Regional del Valle del Cauca	CO	Autoridades Ambientales	Nacional	https://statics.sibcolombia.net/sib-resources/images/logos-socios/500px/cvc.jpg	4020	4020	0	111	636	636		11
CVS - Corporación Autónoma Regional de los Valles del Sinú y del San Jorge-	CO	Autoridades Ambientales	Nacional	https://statics.sibcolombia.net/sib-resources/images/logos-socios/500px/cvs.jpg	3472	3455	10	924	343	338	10	23
Cabildo Verde de Sabana de Torres	CO	ONG	Nacional	https://statics.sibcolombia.net/sib-resources/images/logos-socios/500px/cabildoverde.jpg	525	525	0	20	282	282		10
California Academy of Sciences	US		Internacional		10042	9477	314	352	2289	2112	179	49
California Polytechnic State University, San Luis Obispo	US		Internacional		4	4	0	0	4	4		
California State University, Fullerton	US		Internacional		18	18	0	0	9	9		
California State University, Long Beach	US		Internacional		63	63	0	0	55	55		
Canadian Biodiversity Information Facility	CA		Internacional		276	276	0	1	211	211		1
Canadian Museum of Nature	CA		Internacional		1401	1362	39	35	426	398	29	21
Canadian node of the Ocean Biogeographic Information System (OBIS Canada)	CA		Internacional		2	0	2	1	1		1	
Carbones del Cerrejón Limited	CO	Empresas	Nacional	https://statics.sibcolombia.net/sib-resources/images/logos-socios/500px/cerrejon.jpg	57539	57539	0	3823	845	845		13
Caribbean OBIS Node	VE		Internacional		1975	878	1135	288	270	63	229	1
Carnegie Museums	US		Internacional		19703	19698	0	46	3759	3757		13
Carsa Gold S.A.S	CO	Empresas	Nacional	https://statics.sibcolombia.net/sib-resources/images/logos-socios/500px/carsa.jpg	4159	4159	0	12	65	65		1
CeDoc of Plant Biodiversity (CeDocBIV), Univ. Barcelona	ES		Internacional		3	3	0	0	3	3		
Celsia Colombia S.A. E.S.P.	CO	Empresas	Nacional	https://statics.sibcolombia.net/sib-resources/images/logos-socios/500px/celsia.jpg	35	35	0	9	7	7		
Centre for Australian National Biodiversity Research	AU		Internacional		1099	1098	1	22	96	96		
Centre for Genetic Resources, The Netherlands	NL		Internacional		49	48	0	0	11	11		
Centro Internacional de Agricultura Tropical - CIAT	CO	Centros/Institutos de Investigación	Nacional	https://statics.sibcolombia.net/sib-resources/images/logos-socios/500px/ciat.jpg	29594	29534	1	2	1008	1008	1	1
Centro Nacional de Investigaciones del Café - Cenicafé	CO	Centros/Institutos de Investigación	Nacional	https://statics.sibcolombia.net/sib-resources/images/logos-socios/500px/cenicafe.jpg	4296	4296	0	14	135	135		
Centro de Bioinformática y Biología Computacional de Colombia - BIOS	CO	Centros/Institutos de Investigación	Nacional	https://statics.sibcolombia.net/sib-resources/images/logos-socios/500px/bios.jpg	479	165	270	149				
Centro de Ensino São Lucas	BR		Internacional		9	9	0	0	5	5		
Centro de Estudios Parasitológicos y de Vectores (CEPAVE)	AR		Internacional		983	983	0	0	27	27		
Centro de Referência em Informação Ambiental	BR		Internacional		1	1	0	0				
Cerro Matoso S.A	CO	Empresas	Nacional	https://statics.sibcolombia.net/sib-resources/images/logos-socios/500px/cerromatoso.jpg	19309	19309	0	25	865	865		4
Charles R. Conner Museum	US		Internacional		3	3	0	0	3	3		
Charles University - Herbarium collections & Department of Botany	CZ		Internacional		3180	3180	0	306	154	154		
Cheadle Center for Biodiversity and Ecological Restoration	US		Internacional		5	5	0	0	2	2		
Check List	BR		Internacional		73	73	0	0	25	25		
Chicago Academy of Sciences	US		Internacional		26	26	0	0	9	9		
Cincinnati Museum Center	US		Internacional		2	2	0	0				
Clemson University Herbarium	US		Internacional		4	4	0	0	1	1		
Cleveland Museum of Natural History	US		Internacional		89	89	0	0	49	49		
Colorado State University, C.P. Gillette Museum of Arthropod Diversity	US		Internacional		43	43	0	0	25	25		
ComisiÃ³n nacional para el conocimiento y uso de la biodiversidad	MX		Internacional		6975	6897	57	36	3374	3345	31	12
Comissão Executiva do Plano da Lavoura Cacaueira – Centro de Pesquisas do Cacau	BR		Internacional		64	64	0	0	59	59		
Commonwealth Scientific and Industrial Research Organisation	AU		Internacional		105	105	0	0				
Compensation International Progress S.A. -Ciprogress Greenlife-	CO	Empresas	Nacional	https://statics.sibcolombia.net/sib-resources/images/logos-socios/500px/ciprogress.jpg	820	820	0	8				
Consejo Comunitario de Cupica Rio, Selva y Mar	CO	Academia	Nacional	https://statics.sibcolombia.net/sib-resources/images/logos-socios/500px/Cupica.png	1006	1005	1	28	394	393	1	12
Conservatoire et Jardin botaniques de la Ville de Genève - G	CH		Internacional		2600	2600	0	0	1543	1543		
Construcciones y Ambiente Conambiente S.A.S	CO	Empresas	Nacional	https://github.com/SIB-Colombia/logos/blob/main/socio-SiB-Conambiente.png	131	131	0	0	64	64		
Coralina - Corporación para el Desarrollo Sostenible del Archipiélago de San Andrés, Providencia y Santa Catalina	CO	Autoridades Ambientales	Nacional	https://statics.sibcolombia.net/sib-resources/images/logos-socios/500px/coralina.jpg	65	0	65	0	1		1	
Corantioquia - Corporación Autónoma Regional del Centro de Antioquia	CO	Autoridades Ambientales	Nacional	https://statics.sibcolombia.net/sib-resources/images/logos-socios/500px/corantioquia.jpg	13777	13777	0	86	1892	1892		8
Cormacarena - Corporación para el Desarrollo Sostenible del área de Manejo Especial La Macarena	CO	Autoridades Ambientales	Nacional	https://statics.sibcolombia.net/sib-resources/images/logos-socios/500px/cormacarena.jpg	1680	1680	0	27	422	422		8
eBird Colombia	CO		Nacional		8249435	8227380	8102	103191	1896	1877	103	21
Cornell University Museum of Vertebrates	US		Internacional		1497	1480	16	21	564	553	11	8
Corpoamazonía - Corporación para el Desarrollo Sostenible del Sur de la Amazonia	CO	Autoridades Ambientales	Nacional	https://statics.sibcolombia.net/sib-resources/images/logos-socios/500px/corpoamazonia.jpg	5860	5860	0	48	54	54		2
Corpoboyacá - Corporación Autónoma Regional de Boyacá	CO	Autoridades Ambientales	Nacional	https://statics.sibcolombia.net/sib-resources/images/logos-socios/500px/corpoboyaca.jpg	639	639	0	1	52	52		
Corpocaldas - Corporación Autónoma Regional de Caldas	CO	Autoridades Ambientales	Nacional	https://statics.sibcolombia.net/sib-resources/images/logos-socios/500px/corpocaldas.jpg	1948	1948	0	5	175	175		1
Corpochivor - Corporación Autónoma Regional de Chivor	CO	Autoridades Ambientales	Nacional	https://statics.sibcolombia.net/sib-resources/images/logos-socios/500px/corpochivor.jpg	768	768	0	18	75	75		1
Corpoguavio - Corporación Autónoma Regional del Guavio	CO	Autoridades Ambientales	Nacional	https://statics.sibcolombia.net/sib-resources/images/logos-socios/500px/corpoguavio.jpg	16098	16098	0	30	549	549		4
Corporación Centro de Investigación en Palma de Aceite - CENIPALMA	CO	Centros/Institutos de Investigación	Nacional	https://statics.sibcolombia.net/sib-resources/images/logos-socios/500px/cenipalma.jpg	506	506	0	0	1	1		
Corporación Colombiana de Investigación Agropecuaria - AGROSAVIA	CO	Centros/Institutos de Investigación	Nacional	https://statics.sibcolombia.net/sib-resources/images/logos-socios/500px/agrosavia.jpg	2999	2999	0	260	151	151		
Corporación CorpoGen	CO	Centros/Institutos de Investigación	Nacional	https://statics.sibcolombia.net/sib-resources/images/logos-socios/500px/corpogen.jpg	150	150	0	18	20	20		
Corporación Cuenca Verde	CO	ONG	Nacional	https://statics.sibcolombia.net/sib-resources/images/logos-socios/500px/cuencaverde.jpg	584	584	0	5	249	249		
Corporación Paisajes Rurales	CO	ONG	Nacional	https://statics.sibcolombia.net/sib-resources/images/logos-socios/500px/paisajesrurales.jpg	21090	21090	0	186	1373	1373		10
Corporación San Jorge	CO	ONG	Nacional	https://statics.sibcolombia.net/sib-resources/images/logos-socios/500px/corporacionsanjorge.jpg	51	51	0	0	50	50		
Corporación Universitaria del Huila	CO	Academia	Nacional	https://statics.sibcolombia.net/sib-resources/images/logos-socios/500px/corhuila.jpg	1210	1210	0	0	16	16		
Corporación para la gestión ambiental Biodiversa	CO	ONG	Nacional	https://statics.sibcolombia.net/sib-resources/images/logos-socios/500px/biodiversa.jpg	1122	1122	0	0	90	90		
Council for Scientific and Industrial Research-Plant Genetic Resources Research Institute (CSIR-PGRRI),Ghana	GH		Internacional		24	24	0	0	5	5		
Crop Research Institute (CRI)	CZ		Internacional		13	13	0	0	2	2		
Culture Collection of Algae at University of Texas at Austin	US		Internacional		1	1	0	0	1	1		
Cunaguaro Consultores LTDA	CO	Empresas	Nacional	https://statics.sibcolombia.net/sib-resources/images/logos-socios/500px/cunaguaro.jpg	657	657	0	6	150	150		2
Darder Natural History Museum of Banyoles	ES		Internacional		6	6	0	0	5	5		
Delaware Museum of Natural History	US		Internacional		1084	1084	0	0	426	426		
Denver Museum of Nature & Science	US		Internacional		81	36	44	0	65	30	40	
Dep. Biology, Univ. Autónoma de Madrid	ES		Internacional		2447	2215	0	0	25	25		
Dep. of Plant Biology and Ecology, Univ. Seville	ES		Internacional		57	57	0	1	18	18		
Departamento de Biodiversidad, Ecología y Evolución, Unidad Docente de Botánica. Fac. de Ciencias Biológicas, Univ. Complutense de Madrid	ES		Internacional		7	7	0	0	7	7		
Departamento de Farmacología, Farmacognosia & Botánica, Fac. de Farmacia, Univ. Complutense de Madrid	ES		Internacional		2	2	0	0	1	1		
Department of Bioscience, Aarhus University	DK		Internacional		59691	59691	0	0	71	71		
Department of Environment and Natural Resources	AU		Internacional		1	1	0	0				
Department of Organisms and Systems Biology. University of Oviedo	ES		Internacional		2	2	0	0	1	1		
Department of Plant Biology. Faculty of Biological Sciences. Univ. Murcia	ES		Internacional		3	3	0	0	3	3		
Department of Zoology, Cambridge	GB		Internacional		532	532	0	0	18	18		
Dept. Of Biology, University of Trieste	IT		Internacional		2	2	0	0				
Depto. de Ciencias Ambientales y Recursos Naturales, Universidad de Alicante	ES		Internacional		67	67	0	0	47	47		
Desert Botanical Garden Herbarium	US		Internacional		4	4	0	0	1	1		
Dipartimento di Biologia, UniversitÃ  di Pisa	IT		Internacional		1	1	0	0	1	1		
Diveboard	FR		Internacional		97	10	87	21	48	9	42	12
Duke University Herbarium	US		Internacional		408	407	0	0	182	181		
Ecopetrol S.A.	CO	Empresas	Nacional	https://statics.sibcolombia.net/sib-resources/images/logos-socios/500px/ecopetrol.jpg	41789	41789	0	1750	1254	1254		9
Embrapa Cenargen	BR		Internacional		43	42	0	0	14	13		
Embrapa Semiárido	BR		Internacional		2	2	0	0	1	1		
Emporia State University	US		Internacional		27	27	0	2	8	8		
Empresas Públicas de Medellín E.S.P.	CO	Empresas	Nacional	https://statics.sibcolombia.net/sib-resources/images/logos-socios/ipt/epm.jpg	32503	32503	0	114	1533	1533		8
Escola Superior de Agricultura Luiz de Queiroz	BR		Internacional		7	7	0	0	6	6		
Estonian Museum of Natural History	EE		Internacional		191	191	0	60	23	23		
Estonian Naturalists’ Society	EE		Internacional		14	14	0	0	2	2		
Estonian University of Life Sciences	EE		Internacional		1624	1624	0	0	125	125		
European Nucleotide Archive (EMBL-EBI)	GB		Internacional		17555	17462	63	376	2809	2798	11	10
FIOCRUZ - Oswaldo Cruz Foundation	BR		Internacional		736	736	0	0	98	98		
Faculdade de Filosofia, Ciências e Letras de Ribeirão Preto (FFCLRP), Universidade de São Paulo (USP)	BR		Internacional		638	638	0	0	49	49		
Fairchild Tropical Botanic Garden	US		Internacional		559	558	0	59	144	144		
Federación Nacional de Cacaoteros	CO	Empresas	Nacional	https://statics.sibcolombia.net/sib-resources/images/logos-socios/500px/fedecacao.jpg	17	17	0	0				
Federación Nacional de Cafeteros de Colombia	CO	Empresas	Nacional	https://statics.sibcolombia.net/sib-resources/images/logos-socios/500px/fnc.jpg	26804	26804	0	80	741	741		2
Field Museum	US		Internacional		79728	79530	174	448	13528	13421	113	76
Finnish Museum of Natural History	FI		Internacional		9	9	0	0	3	3		
FishBase	SE		Internacional		650	535	118	211	389	314	83	60
Florida Museum of Natural History	US		Internacional		8314	4060	4199	620	1963	1296	895	126
Forestry Research Institute of Nigeria	NG		Internacional		1	1	0	0	1	1		
Fort Hays Sternberg Museum of Natural History	US		Internacional		4	4	0	0	4	4		
Friedrich-Alexander University of Erlangen-Nürnberg	DE		Internacional		1	1	0	0				
Frost Entomological Museum	US		Internacional		9	9	0	0	5	5		
Fundacion Miguel Lillo Provider	AR		Internacional		95	95	0	0	40	40		
Fundación Alma	CO	ONG	Nacional	https://statics.sibcolombia.net/sib-resources/images/logos-socios/500px/alma.jpg	282	282	0	0	213	213		
Fundación Bosques y Humedales	CO	ONG	Nacional	https://statics.sibcolombia.net/sib-resources/images/logos-socios/500px/bosqhum.jpg	2012	2012	0	0	1	1		
Fundación Botánica y Zoológica de Barranquilla	CO	ONG	Nacional	https://statics.sibcolombia.net/sib-resources/images/logos-socios/500px/zoobaq.jpg	106	106	0	0	13	13		
Fundación Centro de Primates	CO	ONG	Nacional	https://statics.sibcolombia.net/sib-resources/images/logos-socios/500px/fundcentrodeprimates.jpg	57	57	0	0	1	1		
Fundación Centro para la Investigación en Sistemas Sostenibles de Producción Agropecuaria - Cipav	CO	Centros/Institutos de Investigación	Nacional	https://statics.sibcolombia.net/sib-resources/images/logos-socios/500px/cipav.jpg	1754	1754	0	136	44	44		
Fundación Cerro Bravo	CO	ONG	Nacional	https://statics.sibcolombia.net/sib-resources/images/logos-socios/500px/cerrobravo.jpg	214	214	0	0	130	130		
Fundación Chimbilako	CO	ONG	Nacional	https://statics.sibcolombia.net/sib-resources/images/logos-socios/500px/chimbilako.jpg	584	584	0	0	22	22		
Fundación Colombia Azul	CO	ONG	Nacional	https://statics.sibcolombia.net/sib-resources/images/logos-socios/500px/colombiaazul.jpg	291	0	291	155	11		11	6
Fundación Ecohabitats	CO	ONG	Nacional	https://statics.sibcolombia.net/sib-resources/images/logos-socios/500px/ecohabitats.jpg	739	739	0	14	356	356		7
Fundación Ecológica Fenicia Defensa Natural - FEDENA	CO	ONG	Nacional	https://statics.sibcolombia.net/sib-resources/images/logos-socios/500px/fedena.jpg	1565	1565	0	7	341	341		2
Fundación Ecotrópico de Colombia	CO	ONG	Nacional	https://statics.sibcolombia.net/sib-resources/images/logos-socios/500px/ecotropico.jpg	7277	7277	0	105	564	564		6
Fundación Entropika	CO	ONG	Nacional	https://statics.sibcolombia.net/sib-resources/images/logos-socios/500px/entropika.jpg	1302	1302	0	0	8	8		
Fundación Estación Biológica Guayacanal	CO	ONG	Nacional	https://statics.sibcolombia.net/sib-resources/images/logos-socios/500px/guayacanal.jpg	1203	1203	0	10	260	260		
Fundación Gaia	CO	ONG	Nacional	https://statics.sibcolombia.net/sib-resources/images/logos-socios/500px/gaia.jpg	1846	1846	0	29	401	401		3
Fundación Humedales	CO	ONG	Nacional	https://statics.sibcolombia.net/sib-resources/images/logos-socios/500px/humedales.jpg	26805	26805	0	163	511	511		7
Fundación Macuáticos Colombia	CO	ONG	Nacional	https://statics.sibcolombia.net/sib-resources/images/logos-socios/500px/macuaticos.jpg	1	0	1	0	1		1	
Fundación Malpelo y Otros Ecosistemas Marinos	CO	ONG	Nacional	https://statics.sibcolombia.net/sib-resources/images/logos-socios/500px/malpelo.jpg	1827	30	1775	194	676	18	643	53
Fundación Natura Colombia	CO	ONG	Nacional	https://statics.sibcolombia.net/sib-resources/images/logos-socios/500px/natura.jpg	1165	1165	0	18	207	207		2
Fundación Omacha	CO	ONG	Nacional	https://statics.sibcolombia.net/sib-resources/images/logos-socios/500px/omacha.jpg	7480	7423	62	530	663	651	11	10
Fundación Orinoquia Biodiversa (FOB)	CO	ONG	Nacional	https://statics.sibcolombia.net/sib-resources/images/logos-socios/500px/orinoquiabiodiversa.jpg	2740	2740	0	9	208	208		4
Fundación Orinoquía	CO	ONG	Nacional	https://statics.sibcolombia.net/sib-resources/images/logos-socios/500px/fundacionorinoquia.jpg	136	136	0	0	4	4		
Fundación Panthera Colombia	CO	ONG	Nacional	https://statics.sibcolombia.net/sib-resources/images/logos-socios/500px/panthera.jpg	8186	8186	0	397	101	101		3
Fundación Pro-Sierra Nevada de Santa Marta	CO	ONG	Nacional	https://statics.sibcolombia.net/sib-resources/images/logos-socios/500px/prosierra.jpg	205	205	0	0	94	94		
Fundación Reserva Natural La Palmita - Centro de Investigación	CO	ONG	Nacional	https://statics.sibcolombia.net/sib-resources/images/logos-socios/500px/lapalmita.jpg	5916	5916	0	193	554	554		10
Fundación Tortugas del Mar	CO	ONG	Nacional	https://statics.sibcolombia.net/sib-resources/images/logos-socios/500px/tortugasdelmar.jpg	175	2	173	0	3	2	3	
Fundación Trópico	CO	ONG	Nacional	https://statics.sibcolombia.net/sib-resources/images/logos-socios/500px/ftropico.jpg	4095	4095	0	104	567	567		5
Fundación Trópico Alto	CO	ONG	Nacional	https://statics.sibcolombia.net/sib-resources/images/logos-socios/500px/tropicoalto.jpg	218	218	0	2	96	96		
Fundación Universidad de Bogotá Jorge Tadeo Lozano	CO	Academia	Nacional	https://statics.sibcolombia.net/sib-resources/images/logos-socios/500px/utadeo.jpg	6238	2656	3538	1909	351	273	246	34
Fundación Universitaria de San Gil	CO	Academia	Nacional	https://github.com/SIB-Colombia/logos/blob/main/socio-SiB-unisangil.png	1557	1557	0	464				
Fundación para la Investigación y Conservación Biológica Marina - Ecomares	CO	ONG	Nacional	https://statics.sibcolombia.net/sib-resources/images/logos-socios/500px/ecomares.jpg	276	0	276	0	35		35	
Fundaci贸n Cunaguaro	CO		Nacional		272	272	0	0	16	16		
Fundação Zoobotânica do Rio Grande do Sul	BR		Internacional		17	17	0	0	13	13		
GBIF-Sweden	SE		Internacional		8668	8663	4	53	3410	3407	3	3
Georg-August-Universität Göttingen, Albrecht-von-Haller-Institut für Pflanzenwissenschaften, Abteilung Systematische Botanik	DE		Internacional		5343	5343	0	0	776	776		
Ghana Biodiversity Information Facility (GhaBIF)	GH		Internacional		6	6	0	0	6	6		
Ghent University	BE		Internacional		5	5	0	1	3	3		1
Gobernación de San Andrés y Providencia	CO	Entidades Administrativas Territoriales	Nacional	https://statics.sibcolombia.net/sib-resources/images/logos-socios/500px/sanandres.jpg	623	0	623	0	1		1	
Gothenburg Natural History Museum (GNM)	SE		Internacional		434	434	0	7	258	258		3
Grupo Energía Bogotá	CO	Empresas	Nacional	https://statics.sibcolombia.net/sib-resources/images/logos-socios/500px/geb.jpg	61111	61111	0	4	300	300		
Harvard University Herbaria	US		Internacional		10533	10532	0	27	3606	3605		
Hatovial S.A.S	CO	Empresas	Nacional	https://statics.sibcolombia.net/sib-resources/images/logos-socios/500px/hatovial.jpg	1898	1898	0	1	65	65		
Haus der Natur Salzburg, Museum für Natur und Technik	AT		Internacional		646	646	0	0	217	217		
Herbario Gaspar Xuarez (BAA)	AR		Internacional		1	1	0	0	1	1		
Herbario SANT, Universidade de Santiago de Compostela	ES		Internacional		7	7	0	0	7	7		
Herbarium Hamburgense	DE		Internacional		71	71	0	0	58	58		
Herbarium Haussknecht	DE		Internacional		277	277	0	0	166	166		
Herbarium LEB Jaime Andrés Rodríguez. Facultad de Ciencias Biológicas y Ambientales. Universidad de León.	ES		Internacional		2	2	0	0	2	2		
Herbarium of Université de Montpellier 2, Institut de Botanique	FR		Internacional		576	576	0	0	420	420		
Herbarium of the University of Aarhus	DK		Internacional		439	439	0	6	223	223		
Herbier des conservatoires et jardins botaniques de Nancy	FR		Internacional		2	2	0	0	1	1		
Humboldt State University	US		Internacional		4	4	0	0	4	4		
INERCO Consultoría Colombia	CO	Empresas	Nacional	https://statics.sibcolombia.net/sib-resources/images/logos-socios/500px/inerco.jpg	1090	1090	0	31	195	195		6
INRA Antilles-Guyane	FR		Internacional		1	1	0	0	1	1		
IRD - Institute of Research for Development	FR		Internacional		4	4	0	0	4	4		
ISAGEN S.A. E.S.P.	CO	Empresas	Nacional	https://statics.sibcolombia.net/sib-resources/images/logos-socios/500px/isagen.jpg	41635	41635	0	567	895	895		8
Illinois Natural History Survey	US		Internacional		1254	1235	1	51	114	113		
Illinois State Museum	US		Internacional		5	5	0	0	3	3		
Insectarium de Montréal	CA		Internacional		1	1	0	0	1	1		
Institut Botanic de Barcelona (IBB, CSIC-Ajuntament de Barcelona)	ES		Internacional		434	434	0	0	335	335		
Institute of Biodiversity, Animal Health and Comparative Medicine, College of Medical, Veterinary and Life Sciences, University of Glasgow	GB		Internacional		131	131	0	0	2	2		
Institute of Marine Sciences (ICM-CSIC)	ES		Internacional		4	0	4	0	3		3	
Instituto Agronômico (IAC)	BR		Internacional		117	115	0	2	62	60		
Instituto Agronômico de Pernambuco	BR		Internacional		15	15	0	0	15	15		
Instituto Amazónico de Investigaciones Científicas - SINCHI	CO	Centros/Institutos de Investigación	Nacional	https://statics.sibcolombia.net/sib-resources/images/logos-socios/500px/sinchi.jpg	202269	202269	0	7085	10510	10510		6
Instituto Anchietano de Pesquisas/UNISINOS	BR		Internacional		52	52	0	0	47	47		
Instituto Colombiano de Medicina Tropical - ICTM	CO	Centros/Institutos de Investigación	Nacional	https://statics.sibcolombia.net/sib-resources/images/logos-socios/500px/icmt.jpg	3535	3535	0	832	50	50		
Instituto Federal de Educação, Ciência e Tecnologia do Amazonas	BR		Internacional		1	1	0	0	1	1		
Instituto Florestal	BR		Internacional		1	1	0	0	1	1		
Instituto Multidisciplinario de Biología Vegetal - IMBIV	AR		Internacional		221	221	0	0	87	87		
Instituto Nacional da Mata Atlântica	BR		Internacional		122	120	0	0	54	52		
Instituto Nacional de Pesquisas da Amazônia - INPA	BR		Internacional		2450	2419	1	30	1209	1202	1	1
Instituto Nacional de Salud	CO	Centros/Institutos de Investigación	Nacional	https://statics.sibcolombia.net/sib-resources/images/logos-socios/500px/ins.jpg	8754	8754	0	21	84	84		
Instituto Tecnológico Metropolitano	CO	Academia	Nacional	https://statics.sibcolombia.net/sib-resources/images/logos-socios/500px/itm.jpg	4653	4652	0	20	870	870		3
Instituto Tecnológico del Putumayo	CO	Academia	Nacional	https://statics.sibcolombia.net/sib-resources/images/logos-socios/500px/itp.jpg	131	131	0	0	8	8		
Instituto Universitario de la Paz	CO	Academia	Nacional	https://statics.sibcolombia.net/sib-resources/images/logos-socios/ipt/unipaz.jpg	2307	2307	0	3	115	115		3
Instituto de Acuicultura de Torre de la Sal (IATS-CSIC)	ES		Internacional		13	13	0	0	1	1		
Instituto de Botánica Darwinion - CONICET	AR		Internacional		183	183	0	0	100	100		
Instituto de Botánica del Nordeste	AR		Internacional		1	1	0	0	1	1		
Instituto de Botânica, São Paulo	BR		Internacional		1030	1028	0	1	678	677		1
Instituto de Investigaciones Ambientales del Pacífico John Von Neumann - IIAP	CO	Centros/Institutos de Investigación	Nacional	https://statics.sibcolombia.net/sib-resources/images/logos-socios/500px/iiap.jpg	55121	40196	12978	12423	1956	1924	42	39
Instituto de Investigaciones Marinas y Costeras - Invemar	CO	Centros/Institutos de Investigación	Nacional	https://statics.sibcolombia.net/sib-resources/images/logos-socios/500px/invemar.jpg	282034	45178	254926	45665	2091	490	1864	72
Instituto de Investigación de Recursos Biológicos Alexander von Humboldt	CO	Centros/Institutos de Investigación	Nacional	https://statics.sibcolombia.net/sib-resources/images/logos-socios/500px/iavh.jpg	1081786	1076733	371	39324	19318	19283	36	82
Instituto de Pesquisas Jardim Botanico do Rio de Janeiro	BR		Internacional		10923	10916	0	41	3614	3610		5
Instituto para la Investigación y la Preservación del Patrimonio Cultural y Natural del Valle del Cauca - INCIVA	CO	Centros/Institutos de Investigación	Nacional	https://statics.sibcolombia.net/sib-resources/images/logos-socios/500px/inciva.jpg	21027	20947	76	681	1734	1664	70	47
InvBasa	CO	Redes/Iniciativas	Nacional	https://statics.sibcolombia.net/sib-resources/images/logos-socios/500px/invbasa.jpg	94	94	0	0	20	20		
James R. Slater Museum of Natural History	US		Internacional		31	31	0	0	13	13		
Jardim Botânico Plantarum	BR		Internacional		2	2	0	0	2	2		
Jardin Botanique de Montréal	CA		Internacional		7	7	0	0	7	7		
"Jardín Botánico de Bogotá ""José Celestino Mutis"""	CO	Entidades Administrativas Territoriales	Nacional	https://statics.sibcolombia.net/sib-resources/images/logos-socios/500px/jbb.jpg	41867	41855	0	734	3715	3714		1
"Jardín Botánico de Cartagena ""Guillermo Piñeres"""	CO	ONG	Nacional	https://statics.sibcolombia.net/sib-resources/images/logos-socios/500px/jbgp.jpg	5776	5689	5	36	1288	1283	4	7
Jardín Botánico del Quindío	CO	ONG	Nacional	https://statics.sibcolombia.net/sib-resources/images/logos-socios/500px/jbq.jpg	417	417	1	3	197	197	1	1
Kathryn Kalmbach Herbarium (Denver Botanic Gardens)	US		Internacional		2	2	0	0	2	2		
KwaZulu-Natal Museum	ZA		Internacional		18	18	0	1	10	10		
Laboratoire de Paléobotanique et Paléoécologie	FR		Internacional		132	132	0	0	3	3		
Landcare Research	NZ		Internacional		160	160	0	2	98	98		
Leeds Museums and Galleries	GB		Internacional		12	12	0	0	10	10		
Leibniz Institute DSMZ - German Collection of Microorganisms and Cell Cultures	DE		Internacional		105	105	0	0	29	29		
Leibniz Institute of Plant Genetics and Crop Plant Research (IPK)	DE		Internacional		153	153	0	0	3	3		
Lomonosov Moscow State University	RU		Internacional		165	165	0	17	89	89		
Louisiana State University Herbarium	US		Internacional		91	91	0	22	33	33		
Louisiana State University Museum of Natural Science	US		Internacional		1755	1755	0	6	616	616		4
Lund Botanical Museum (LD)	SE		Internacional		397	396	1	0	338	337	1	
Lund Museum of Zoology	SE		Internacional		1205	1205	0	9	764	764		
MGnify	GB		Internacional		3166	3166	0	210	22	22		
MNHN - Museum national d'Histoire naturelle	FR		Internacional		19197	19146	42	143	5922	5881	34	38
Manchester Museum, The University of Manchester	GB		Internacional		26	26	0	0	7	7		
Margaret H. Fulford Herbarium, University of Cincinnati (CINC)	US		Internacional		424	424	0	4	143	143		
McGill University	CA		Internacional		5	5	0	0	1	1		
Meise Botanic Garden	BE		Internacional		2594	2594	0	15	1498	1498		2
Michigan State University Herbarium	US		Internacional		15	15	0	0	12	12		
Michigan State University Museum	US		Internacional		874	874	0	0	177	177		
Milwaukee Public Museum	US		Internacional		252	252	0	0	121	121		
Ministerio de Ciencia, Tecnología e Innovación Productiva	AR		Internacional		15	15	0	0	2	2		
Mississippi Entomological Museum	US		Internacional		52	52	0	0	31	31		
Missouri Botanical Garden	US		Internacional		201896	200929	56	4546	21231	21205	12	13
Moam Monitoreos Ambientales S.A.S	CO	Empresas	Nacional	https://statics.sibcolombia.net/sib-resources/images/logos-socios/500px/moam.jpg	1781	0	1770	84	212		210	17
Moore Laboratory of Zoology	US		Internacional		196	196	0	4	94	94		1
Museo Argentino de Ciencias Naturales	AR		Internacional		279	279	0	7	168	168		
Museo Entomológico de Comfenalco - Antioquia	CO	Empresas	Nacional	https://statics.sibcolombia.net/sib-resources/images/logos-socios/500px/comfenalco.jpg	15225	15211	12	968	566	565		
Museo Entomológico de León – MEL	NI		Internacional		39	39	0	3	9	9		
Museo Nacional de Costa Rica	CR		Internacional		1071	1066	0	0	573	570		
Museo de La Plata	AR		Internacional		316	316	0	1	122	122		
Museo de ZoologÃ­a de la Facultad de Ciencias, UNAM	MX		Internacional		2	2	0	0	1	1		
Museon	NL		Internacional		1	1	0	0	1	1		
Museu Botânico Municipal	BR		Internacional		1944	1944	0	10	1388	1388		4
Museu Nacional / UFRJ	BR		Internacional		1406	1397	9	2	506	501	5	
Museu Nacional de História Natural e da Ciência	PT		Internacional		11	11	0	1				
Museu Paraense EmÃ­lio Goeldi	BR		Internacional		774	773	0	1	353	352		
Museu de Ciències Naturals de Barcelona	ES		Internacional		339	339	0	5	102	102		
Museu de Ciências e Tecnologia - PUCRS	BR		Internacional		46	46	0	0	25	25		
Museum George Sand et de la Vallee Noire	FR		Internacional		2	2	0	0	2	2		
Museum Stavanger	NO		Internacional		1	1	0	1				
Museum and Art Gallery of the Northern Territory	AU		Internacional		14	6	6	4				
Museum and Institute of Zoology, Polish Academy of Sciences	PL		Internacional		811	811	0	16	262	262		
Museum für Naturkunde Berlin	DE		Internacional		61	61	0	1	23	23		
Museum of Biological Diversity, The Ohio State University	US		Internacional		20665	20663	0	86	227	226		
Museum of Comparative Zoology, Harvard University	US		Internacional		21699	19736	1568	265	3983	3420	542	49
Museum of Cultural and Natural History - Central Michigan University	US		Internacional		3	3	0	0	2	2		
Museum of Natural and Cultural History - University of Oregon	US		Internacional		6	6	0	0				
Museum of Southwestern Biology	US		Internacional		678	646	1	0	40	39		
Museum of Texas Tech University (TTU)	US		Internacional		853	853	0	114	77	77		
Museum of Vertebrate Zoology	US		Internacional		5857	5816	1	73	883	876	1	4
Museums Victoria	AU		Internacional		188	187	1	76	2	2		
MusÃ©e Zoologique de la Ville de Strasbourg	FR		Internacional		556	556	0	1	248	248		1
Musée de la Vallée (Barcelonnette)	FR		Internacional		1	1	0	0	1	1		
Musée des Confluences	FR		Internacional		244	244	0	1	106	106		1
Muséum d'Histoire Naturelle de Bourges	FR		Internacional		69	69	0	0	50	50		
Muséum d'Histoire naturelle de Grenoble	FR		Internacional		3	3	0	0	2	2		
Muséum d'histoire naturelle de la Ville de Genève - MHNG	CH		Internacional		2908	1943	13	0	194	189		
N. I. Vavilov Institute of Plant Genetic Resources (VIR)	RU		Internacional		2	2	0	0	1	1		
NSW Department of Primary Industries	AU		Internacional		5	5	0	0	3	3		
National Center for Biotechnology Information (NCBI)	US		Internacional		104	104	0	0	81	81		
National Institute of Genetics, ROIS	JP		Internacional		1668	1668	0	29	281	281		
National Museum of Natural History, Luxembourg	LU		Internacional		3	3	0	0				
National Museum of Natural History, Smithsonian Institution	US		Internacional		229419	223762	5182	1919	24215	22992	1635	199
National Museum of Nature and Science, Japan	JP		Internacional		3810	3809	1	40	841	840	1	2
Natural History Museum	GB		Internacional		18618	18065	85	198	5016	4928	63	9
Natural History Museum Aarhus	DK		Internacional		42	42	0	0	17	17		
Natural History Museum Rotterdam	NL		Internacional		398	315	81	0	207	161	57	
Natural History Museum of Denmark	DK		Internacional		188	126	62	16	68	35	33	1
Natural History Museum of Los Angeles County	US		Internacional		48505	46940	848	1084	1889	1618	302	21
Natural History Museum of Utah (UMNH)	US		Internacional		38	38	0	0	19	19		
Natural History Museum, Vienna	AT		Internacional		899	899	0	2	550	550		
Natural History and Science Museum of the University of Porto (MHNC-UP)	PT		Internacional		208	208	0	0	72	72		
Naturalis Biodiversity Center	NL		Internacional		48025	47776	198	747	10910	10848	115	24
Naturhistorisches Museum Basel - NMB	CH		Internacional		2	2	0	0	2	2		
Naturhistorisches Museum Bern - NMBE	CH		Internacional		1	1	0	0				
Naturhistorisches Museum Mainz	DE		Internacional		3	3	0	1	3	3		1
Naturkundemuseum im Ottoneum Kassel	DE		Internacional		48	48	0	0	39	39		
New Brunswick Museum	CA		Internacional		68	68	0	0	16	16		
New Mexico Museum of Natural History and Science	US		Internacional		27	27	0	2	22	22		
New Mexico State Collection of Arthropods	US		Internacional		38	37	0	1	21	20		
New York State Museum (NYSM)	US		Internacional		6	6	0	0	5	5		
North Carolina State Museum of Natural Sciences	US		Internacional		28	27	0	11	12	11		
North Carolina State University Vascular Plant Herbarium (NCSC)	US		Internacional		27	27	0	0	18	18		
Northern Arizona University	US		Internacional		100	100	0	0	69	69		
Northern Arizona University: Colorado Plateau Biodiversity Center	US		Internacional		30	30	0	3				
Norwegian University of Science and Technology	NO		Internacional		74	74	0	0	52	52		
OBIS-SEAMAP	US		Internacional		2067	32	2028	123	30	5	28	1
Observation.org	NL		Internacional		6574	6539	18	144	648	642	9	13
Odonata Central	US		Internacional		3	3	0	0	2	2		
Ohio Wesleyan University Museum of Natural History	US		Internacional		1	1	0	0				
Oleoducto Bicentenario	CO	Empresas	Nacional	https://statics.sibcolombia.net/sib-resources/images/logos-socios/500px/bicentenario.jpg	2074	2074	0	0	92	92		
Oregon State University	US		Internacional		87	26	61	30	22	15	17	4
Organization for Tropical Studies	CR		Internacional		19	19	0	0	11	11		
PANGAEA - Publishing Network for Geoscientific and Environmental Data	DE		Internacional		11891	532	11257	614	79		72	
Paleobiology Database	US		Internacional		8399	8153	228	395	1113	1084	40	
Paleontological Research Institution	US		Internacional		413	406	6	4	132	127	4	
Parques Nacionales Naturales de Colombia	CO	Autoridades Ambientales	Nacional	https://statics.sibcolombia.net/sib-resources/images/logos-socios/500px/pnn.jpg	117099	107812	9182	2591	3754	3689	72	55
"Patrimonio Natural Fondo para la Biodiversidad y Áreas Protegidas ""Patrimonio Natural"""	CO	ONG	Nacional	https://statics.sibcolombia.net/sib-resources/images/logos-socios/500px/patrimonionatural.jpg	7822	7822	0	60	668	668		7
PhytoKeys	BG		Internacional		139	138	0	0	14	14		
Pl@ntNet	FR		Internacional		16860	16856	2	21	484	484	1	3
Plant Breeding and Acclimatization Institute (IHAR) - National Research Institute	PL		Internacional		19	19	0	0	3	3		
Plazi.org taxonomic treatments database	CH		Internacional		7100	7017	56	100	1738	1714	27	10
PlutoF	EE		Internacional		178	178	0	0	64	64		
Pontificia Universidad Javeriana	CO	Academia	Nacional	https://statics.sibcolombia.net/sib-resources/images/logos-socios/500px/puj.jpg	93582	92959	584	15169	6216	6119	97	33
Pontifícia Universidade Católica do Rio de Janeiro	BR		Internacional		58	58	0	1	53	53		1
Price Institute of Parasite Research, School of Biological Sciences, University of Utah	US		Internacional		36	36	0	0	2	2		
Promigas S.A E.S.P	CO	Empresas	Nacional	https://statics.sibcolombia.net/sib-resources/images/logos-socios/500px/promigas.jpg	156774	156774	0	3983	1095	1095		15
Proyecto de Conservación de Aguas y Tierras - ProCAT Colombia	CO	ONG	Nacional	https://statics.sibcolombia.net/sib-resources/images/logos-socios/500px/procat.jpg	252	250	0	0	38	38		
Purdue Entomological Research Collection	US		Internacional		107	107	0	0	54	54		
Queensland Museum	AU		Internacional		45	32	10	17	4	3	1	
Questagame	AU		Internacional		214	208	6	18	4	4		2
Rancho Santa Ana Botanic Garden	US		Internacional		216	216	0	3	129	129		
Red Nacional de Jardines Botánicos de Colombia	CO	Redes/Iniciativas	Nacional	https://statics.sibcolombia.net/sib-resources/images/logos-socios/500px/rnjb.jpg	208	208	0	0	76	76		
Red Nacional de Observadores de Aves (RNOA)	CO	Redes/Iniciativas	Nacional	https://statics.sibcolombia.net/sib-resources/images/logos-socios/500px/rnoa.jpg	424522	383505	9029	11855	1654	1612	96	21
Reef Life Survey	AU		Internacional		3867	0	3867	130	196		196	17
Royal Belgian Institute of Natural Sciences	BE		Internacional		1485	1476	6	8	365	363	2	3
Royal Botanic Garden Edinburgh	GB		Internacional		2500	2500	0	6	1367	1367		1
Royal Botanic Gardens, Kew	GB		Internacional		8738	8735	0	4	4400	4399		
Royal British Columbia Museum	CA		Internacional		26	8	18	6	12	7	5	
Royal Ontario Museum	CA		Internacional		11574	11479	53	52	1070	1049	20	8
Rutger's University - Chrysler Herbarium	US		Internacional		15	15	0	0	11	11		
SCAR - AntOBIS	GB		Internacional		564	8	556	0	2	1	2	
SEAK S.A.S	CO	Redes/Iniciativas	Nacional	https://statics.sibcolombia.net/sib-resources/images/logos-socios/500px/seak.jpg	155	19	134	13	124	16	110	10
Sam Noble Oklahoma Museum of Natural History	US		Internacional		327	327	0	10	15	15		
San Diego Natural History Museum	US		Internacional		252	250	2	1	82	82	1	1
Santa Barbara Botanic Garden	US		Internacional		2	2	0	0	1	1		
Santa Barbara Museum of Natural History	US		Internacional		3	3	0	0	1	1		
School of Forestry Engineering. Technical University of Madrid	ES		Internacional		1	1	0	0	1	1		
Scripps Institution of Oceanography	US		Internacional		809	32	765	104	245	24	230	24
Secretaría Distrital de Ambiente	CO	Autoridades Ambientales	Nacional	https://statics.sibcolombia.net/sib-resources/images/logos-socios/500px/sda.jpg	33270	33270	0	219	420	420		3
Senckenberg	DE		Internacional		7360	6998	342	52	1947	1886	87	29
Senckenberg Museum für Naturkunde Görlitz	DE		Internacional		6	6	0	0	1	1		
Sistema de Informação sobre a Biodiversidade Brasileira - SiBBr	BR		Internacional		1	1	0	0	1	1		
Société des Sciences Naturelles et Mathématiques de Cherbourg	FR		Internacional		18	18	0	0	10	10		
South African National Biodiversity Institute	ZA		Internacional		146	139	7	0	71	65	6	
South Australian Museum	AU		Internacional		85	77	7	9	2		2	
Southeastern Louisiana University Vertebrate Museum	US		Internacional		4	4	0	0	3	3		
Southwestern Pacific Ocean Biogeographic Information System (OBIS) Node	NZ		Internacional		19	0	19	0	7		7	
Spanish National Museum of Natural Sciences (CSIC)	ES		Internacional		367	367	0	0	49	49		
Staatliche Naturwissenschaftliche Sammlungen Bayerns	DE		Internacional		1945	1937	1	133	640	636		3
Staatliches Museum für Naturkunde Karlsruhe	DE		Internacional		27	27	0	0	14	14		
Staatliches Museum für Naturkunde Stuttgart	DE		Internacional		44	43	1	2	31	30	1	2
Stratos Consultoría Geológica	CO	Empresas	Nacional	https://statics.sibcolombia.net/sib-resources/images/logos-socios/500px/stratos.jpg	1084	34	1049	23	34		33	1
Swedish Museum of Natural History	SE		Internacional		2647	2647	0	255	709	709		47
SysTax	DE		Internacional		582	582	0	1	259	259		1
T. L. Hankinson Vertebrate Museum, Eastern Michigan University	US		Internacional		4	4	0	0	3	3		
TELDAP	TW		Internacional		11	10	0	1	9	8		
TERRASOS	CO	Empresas	Nacional	https://statics.sibcolombia.net/sib-resources/images/logos-socios/500px/terrasos.jpg	16099	16099	0	210	683	683		3
Taiwan Endemic Species Research Institute	TW		Internacional		2	2	0	0	1	1		
Taiwan Forestry Research Institute	TW		Internacional		63	63	0	0	25	25		
Tall Timbers Research Station and Land Conservancy	US		Internacional		2	2	0	0	2	2		
Tallinn Botanic Garden	EE		Internacional		52	52	0	7	32	32		
Tasmanian Museum and Art Gallery	AU		Internacional		80	80	0	0	15	15		
Tecnológico de Antioquia	CO	Academia	Nacional	https://statics.sibcolombia.net/sib-resources/images/logos-socios/500px/tdea.jpg	7503	7503	0	0	18	18		
Tela Botanica	FR		Internacional		1	1	0	0	1	1		
Texas A&M University Biodiversity Research and Teaching Collections	US		Internacional		821	238	569	29	275	50	223	5
Texas A&M University Insect Collection	US		Internacional		4268	4268	0	0	150	150		
The Genomic Observatories Metadatabase (GeOMe)	US		Internacional		213	47	166	0	1	1	1	
The National Institute of Water and Atmospheric Research (NIWA)	NZ		Internacional		1362	180	1162	15	199	18	195	
The New York Botanical Garden	US		Internacional		50245	50182	2	98	9918	9909	1	8
The Non-vertebrate Paleontology Laboratory, Jackson School Museum of Earth History, University of Texas at Austin	US		Internacional		60	60	0	0	5	5		
The Royal Botanic Gardens & Domain Trust	AU		Internacional		33	33	0	1	12	12		
The South African Institute for Aquatic Biodiversity	ZA		Internacional		8	6	2	0	5	3	2	
The University Museum of Zoology, Cambridge	GB		Internacional		227	227	0	6	154	154		
The University of Vermont Pringle Herbarium	US		Internacional		1871	1871	0	8	160	160		
The University of the West Indies Zoology Museum (UWIZM)	TT		Internacional		23	23	0	0	9	9		
Theodore  M. Sperry Herbarium	US		Internacional		4	4	0	0	4	4		
UCLA-Dickey Collection (UCLA-Dickey)	US		Internacional		4	4	0	0	3	3		
UNIBIO, IBUNAM	MX		Internacional		1542	1531	2	7	616	614	2	5
US National Plant Germplasm System	US		Internacional		1684	1682	0	0	100	100		
USDA-ARS Pollinating Insect-Biology, Management, Systematics Research	US		Internacional		294	294	0	0	44	44		
USF Water Institute	US		Internacional		1519	1503	0	5	913	903		2
UiT The Arctic University of Norway	NO		Internacional		7	7	0	0	7	7		
United Herbaria of the University and ETH Zurich (Z+ZT)	CH		Internacional		100	100	0	0	45	45		
United States Geological Survey	US		Internacional		367	4	362	13	102	2	100	2
Universidad CES	CO	Academia	Nacional	https://statics.sibcolombia.net/sib-resources/images/logos-socios/500px/ces.jpg	3038	2816	239	219	245	226	20	1
Universidad Católica de Oriente	CO	Academia	Nacional	https://statics.sibcolombia.net/sib-resources/images/logos-socios/500px/uco.jpg	10544	10533	3	416	1758	1756		26
Universidad Central de Venezuela	VE		Internacional		622	622	0	3	25	25		
Universidad Distrital Francisco José de Caldas	CO	Academia	Nacional	https://statics.sibcolombia.net/sib-resources/images/logos-socios/500px/udistrital.jpg	11843	11840	0	88	2873	2873		2
Universidad EAFIT	CO	Academia	Nacional	https://statics.sibcolombia.net/sib-resources/images/logos-socios/500px/eafit.jpg	589	589	0	428	32	32		
Universidad El Bosque	CO	Academia	Nacional	https://statics.sibcolombia.net/sib-resources/images/logos-socios/500px/unbosque.jpg	1921	1229	690	238	336	143	179	11
Universidad Icesi	CO	Academia	Nacional	https://statics.sibcolombia.net/sib-resources/images/logos-socios/500px/icesi.jpg	18884	18884	0	221	2416	2416		8
Universidad Industrial de Santander	CO	Academia	Nacional	https://statics.sibcolombia.net/sib-resources/images/logos-socios/500px/uis.jpg	42011	39358	3099	3856	5187	5079	109	17
Universidad Libre	CO	Academia	Nacional	https://statics.sibcolombia.net/sib-resources/images/logos-socios/ipt/unilibre.jpg	2	2	0	0	1	1		
Universidad Nacional de Colombia	CO	Academia	Nacional	https://statics.sibcolombia.net/sib-resources/images/logos-socios/500px/unal.jpg	483082	477321	4777	7238	25268	24866	729	188
Universidad Pedagógica y Tecnológica de Colombia	CO	Academia	Nacional	https://statics.sibcolombia.net/sib-resources/images/logos-socios/500px/uptc.jpg	27057	27046	1	1271	2915	2915		8
Universidad Pontificia Bolivariana	CO	Academia	Nacional	https://statics.sibcolombia.net/sib-resources/images/logos-socios/500px/upb.jpg	422	422	0	0	5	5		
Universidad Simón Bolívar	CO	Academia	Nacional	https://github.com/SIB-Colombia/logos/blob/main/socio-SiB-unisimon.png	17	17	0	0	11	11		
Universidad Tecnológica de Pereira	CO	Academia	Nacional	https://statics.sibcolombia.net/sib-resources/images/logos-socios/500px/utp.jpg	2074	2074	0	10	487	487		
Universidad Tecnológica del Chocó	CO	Academia	Nacional	https://statics.sibcolombia.net/sib-resources/images/logos-socios/500px/utch.jpg	19924	19850	39	547	2613	2599	33	48
Universidad de Antioquia	CO	Academia	Nacional	https://statics.sibcolombia.net/sib-resources/images/logos-socios/500px/udea.jpg	122696	118451	868	3188	9692	9585	101	89
Universidad de Caldas	CO	Academia	Nacional	https://statics.sibcolombia.net/sib-resources/images/logos-socios/500px/ucaldas.jpg	130693	130690	0	17942	4960	4958		6
Universidad de Ciencias Aplicadas y Ambientales U.D.C.A	CO	Academia	Nacional	https://statics.sibcolombia.net/sib-resources/images/logos-socios/500px/udca.jpg	739	739	0	2	155	155		
Universidad de Córdoba	CO	Academia	Nacional	https://statics.sibcolombia.net/sib-resources/images/logos-socios/500px/unicordoba.jpg	2065	2064	2	57	609	609		5
Universidad de Ibagué	CO	Academia	Nacional	https://statics.sibcolombia.net/sib-resources/images/logos-socios/500px/unibague.jpg	246	246	0	0	4	4		
Universidad de Nariño	CO	Academia	Nacional	https://statics.sibcolombia.net/sib-resources/images/logos-socios/500px/udenar.jpg	22362	22358	0	80	3389	3389		6
Universidad de Pamplona	CO	Academia	Nacional	https://statics.sibcolombia.net/sib-resources/images/logos-socios/500px/unipamplona.jpg	5053	5053	0	75	790	790		1
Universidad de Salamanca. Nucleus	ES		Internacional		217	217	0	0	123	123		
Universidad de San Buenaventura	CO	Academia	Nacional	https://sibcolombia.net/wp-content/uploads/2021/05/usbcali.jpg	65	65	0	0	22	22		
Universidad de Santander - UDES	CO	Academia	Nacional	-	6	6	0	0				
Universidad de Sucre	CO	Academia	Nacional	https://statics.sibcolombia.net/sib-resources/images/logos-socios/500px/unisucre.jpg	368	368	0	0	68	68		
Universidad de la Amazonia	CO	Academia	Nacional	https://statics.sibcolombia.net/sib-resources/images/logos-socios/500px/uniamazonia.jpg	23187	23187	0	1254	3063	3063		8
Universidad de la Salle	CO	Academia	Nacional	https://statics.sibcolombia.net/sib-resources/images/logos-socios/500px/lasalle.jpg	26401	26390	3	1223	3697	3695	1	19
Universidad de los Andes	CO	Academia	Nacional	https://statics.sibcolombia.net/sib-resources/images/logos-socios/500px/uniandes.jpg	6468	5911	557	383	729	705	46	5
Universidad de los Llanos	CO	Academia	Nacional	https://statics.sibcolombia.net/sib-resources/images/logos-socios/500px/unillanos.jpg	23445	23437	11	719	1463	1463		11
Universidad del Cauca	CO	Academia	Nacional	https://statics.sibcolombia.net/sib-resources/images/logos-socios/500px/unicauca.jpg	709	709	0	0	110	110		
Universidad del Magdalena	CO	Academia	Nacional	https://statics.sibcolombia.net/sib-resources/images/logos-socios/500px/unimagdalena.jpg	79296	76716	2502	2174	627	482	163	11
Universidad del Quindío	CO	Academia	Nacional	https://statics.sibcolombia.net/sib-resources/images/logos-socios/500px/uniquindio.jpg	16180	16179	7	1560	1032	1032		1
Universidad del Sinú Cartagena	CO	Academia	Nacional	https://statics.sibcolombia.net/sib-resources/images/logos-socios/500px/unisinu.jpg	149	78	23	7	90	55	19	3
Universidad del Tolima	CO	Academia	Nacional	https://statics.sibcolombia.net/sib-resources/images/logos-socios/500px/ut.jpg	54878	54811	54	5396	3297	3268	34	74
Universidad del Valle	CO	Academia	Nacional	https://statics.sibcolombia.net/sib-resources/images/logos-socios/500px/univalle.jpg	95279	89474	4970	1514	4376	3702	1046	64
Universidad del Valle de Guatemala	GT		Internacional		3	3	0	0	3	3		
Universidade Estadual Paulista - IBB	BR		Internacional		14	14	0	0	9	9		
Universidade Estadual Paulista - Rio Claro	BR		Internacional		6	6	0	0	4	4		
Universidade Estadual Paulista - São José do Rio Preto	BR		Internacional		3	3	0	0	1	1		
Universidade Estadual de Campinas - Instituto de Biologia	BR		Internacional		248	245	0	4	142	141		
Universidade Estadual de Feira de Santana	BR		Internacional		211	211	0	0	103	103		
Universidade Estadual de Goiás	BR		Internacional		1	1	0	0	1	1		
Universidade Estadual de Londrina	BR		Internacional		1	1	0	0	1	1		
Universidade Estadual de Londrina (UEL)	BR		Internacional		4	4	0	0	1	1		
Universidade Federal da Bahia	BR		Internacional		5	5	0	0	5	5		
Universidade Federal da Paraíba	BR		Internacional		43	42	0	0	5	5		
Universidade Federal de Goiás	BR		Internacional		5	5	0	0	1	1		
Universidade Federal de Mato Grosso - Campus Universitário de Sinop	BR		Internacional		1	1	0	0				
Universidade Federal de Minas Gerais	BR		Internacional		23	23	0	0	15	15		
Universidade Federal de Pernambuco	BR		Internacional		50	50	0	0	39	39		
Universidade Federal de Santa Catarina	BR		Internacional		3	3	0	0	2	2		
Universidade Federal de Uberlândia	BR		Internacional		1	1	0	0	1	1		
Universidade Federal de Viçosa	BR		Internacional		3	3	0	0	2	2		
Universidade Federal do Mato Grosso	BR		Internacional		1	1	0	0	1	1		
Universidade Federal do Paraná	BR		Internacional		202	202	0	0	77	77		
Universidade Federal do Piauí	BR		Internacional		21	21	0	0	15	15		
Universidade Federal do Rio Grande do Sul	BR		Internacional		65	65	0	0	49	49		
Universidade Federal dos Vales do Jequitinhonha e Mucuri	BR		Internacional		2	2	0	0	2	2		
Universidade de Brasília	BR		Internacional		51	51	0	0	44	44		
Universidade de Caxias do Sul	BR		Internacional		17	17	0	0	17	17		
Universidade de S達o Paulo	BR		Internacional		238	236	0	1	150	149		
University Museum Utrecht	NL		Internacional		6	6	0	0	4	4		
University of Alabama Biodiversity and Systematics	US		Internacional		164	163	1	4	75	74	1	1
University of Alaska Museum of the North	US		Internacional		11	11	0	0	5	5		
University of Alberta Museums	CA		Internacional		46	38	7	9	31	28	3	1
University of Amsterdam / IBED	NL		Internacional		41720	40769	7	268	1375	1374	1	
University of Arizona Insect Collection	US		Internacional		10	10	0	0	5	5		
University of Arizona Museum of Natural History	US		Internacional		96	96	0	0	63	63		
University of Arkansas	US		Internacional		192	192	0	0	77	77		
University of Bergen	NO		Internacional		25	25	0	0	19	19		
University of British Columbia	CA		Internacional		39	39	0	0	29	29		
University of California Riverside	US		Internacional		42	42	0	0	26	26		
University of California, Davis	US		Internacional		90	90	0	2	26	26		
University of Colorado Museum of Natural History	US		Internacional		2721	2721	0	1462	163	163		1
University of Connecticut	US		Internacional		225	223	0	6	57	56		
University of GdaÅ„sk, Dept. of Plant Taxonomy and Nature Conservation	PL		Internacional		117	117	0	0	38	38		
University of Georgia Collection of Arthropods	US		Internacional		2	2	0	0	2	2		
University of Gothenburg	SE		Internacional		70	70	0	1	57	57		1
University of Graz, Institute of Plant Sciences	AT		Internacional		50	50	0	0	43	43		
University of Hawaii	US		Internacional		3	3	0	0	1	1		
University of Iowa Museum of Natural History	US		Internacional		3	3	0	0	3	3		
University of Kansas Biodiversity Institute	US		Internacional		14364	14352	9	99	918	907	9	2
University of Kentucky	US		Internacional		1	1	0	0				
University of Louisiana at Monroe	US		Internacional		36	36	0	0	1	1		
University of Manitoba	CA		Internacional		2	2	0	0	2	2		
University of Michigan Herbarium	US		Internacional		2969	2868	96	19	1466	1421	59	5
University of Michigan Museum of Zoology	US		Internacional		6844	6676	16	33	1051	1026	14	14
University of Minnesota Bell Museum	US		Internacional		283	281	0	3	199	197		1
University of Minnesota Insect Collection	US		Internacional		2892	2892	0	0	99	99		
University of Nebraska State Museum	US		Internacional		173	170	3	17	57	55	3	
University of New England	AU		Internacional		2	2	0	0				
University of New Mexico Herbarium (UNM)	US		Internacional		2	2	0	0				
University of North Carolina at Chapel Hill Herbarium (NCU)	US		Internacional		313	313	0	2	199	199		1
University of Oslo	NO		Internacional		657	648	9	2	352	352		2
University of Puerto Rico Mayagüez Invertebrate Collection	PR		Internacional		1	1	0	0	1	1		
University of South Carolina	US		Internacional		13	13	0	0	10	10		
University of Tartu, Natural History Museum and Botanical Garden	EE		Internacional		276	276	0	20	64	64		
University of Tennessee - Chattanooga (UTC)	US		Internacional		11	11	0	0	4	4		
University of Tennessee Herbarium	US		Internacional		175	174	0	0	112	112		
University of Tennessee, Knoxville	US		Internacional		1	1	0	0	1	1		
University of Texas at Austin, Biodiversity Collections	US		Internacional		2340	2335	1	8	770	769		2
University of Texas at El Paso Biodiversity Collections	US		Internacional		2917	2914	0	17	273	273		
University of Texas-Arlington	US		Internacional		3248	3248	0	4	244	244		1
University of Vienna - Herbarium WU	AT		Internacional		107	107	0	0	51	51		
University of Washington Burke Museum	US		Internacional		428	381	40	3	162	146	18	
University of Wisconsin - Madison	US		Internacional		6	6	0	0				
Université de Montréal Biodiversity Centre	CA		Internacional		186	186	0	4	172	172		
Université de Namur Département de Biologie	BE		Internacional		121	121	0	1	74	74		
Université de Strasbourg	FR		Internacional		1	1	0	0	1	1		
Utah State University	US		Internacional		48	48	0	0	25	25		
Virginia Tech Insect Collection	US		Internacional		43	43	0	0	19	19		
WCS Colombia	CO	ONG	Nacional	https://statics.sibcolombia.net/sib-resources/images/logos-socios/500px/wcs.jpg	19068	18952	94	1450	699	697	16	10
WWF Colombia	CO	ONG	Nacional	https://statics.sibcolombia.net/sib-resources/images/logos-socios/500px/wwf.jpg	98	10	87	84	25	10	15	16
Walter Reed Biosystematics Unit, Smithsonian Institution	US		Internacional		4254	4254	0	0	167	167		
West Virginia Wesleyan College	US		Internacional		1	1	0	0				
Westerdijk Fungal Biodiversity Institute	NL		Internacional		232	232	0	0	129	129		
Western Australia, Department of Biodiversity, Conservation and Attractions	AU		Internacional		7	7	0	0	3	3		
Western Australian Museum	AU		Internacional		37	13	24	3	2		2	
Western Foundation of Vertebrate Zoology	US		Internacional		2459	2459	0	5	620	620		3
Wooseokheon Natural History Museum	KR		Internacional		23	23	0	0				
Worcester Society of Natural History d.b.a. EcoTarium	US		Internacional		1	1	0	0	1	1		
World Museum, National Museums Liverpool	GB		Internacional		3	3	0	0	3	3		
WrocÅ‚aw University, Museum of Natural History	PL		Internacional		14	14	0	0	10	10		
Xeno-canto Foundation for Nature Sounds	NL		Internacional		29151	29130	2	537	1468	1466	2	10
Yale University Peabody Museum	US		Internacional		3656	3618	32	13	831	816	11	2
ZooKeys	BG		Internacional		6	6	0	0	1	1		
Zoologic Audio, National Museum of Natural Science	ES		Internacional		28	28	0	1	11	11		
Zoological Institute, Russian Academy of Sciences, St. Petersburg	RU		Internacional		9	5	4	0	5	1	4	
Zoological Museum, Natural History Museum of Denmark	DK		Internacional		61	9	50	0	55	6	47	
Zoologische Staatssammlung München/Staatliche Naturwissenschaftliche Sammlungen Bayerns	DE		Internacional		60	60	0	0	36	36		
Zoologisches Forschungsinstitut und Museum Alexander Koenig	DE		Internacional		17	17	0	0	9	9		
Naturalista Colombia	US		Internacional		163117	161641	915	2037	10449	10209	348	81
naturgucker.de	DE		Internacional		3421	3421	0	45	795	795		10
Área Metropolitana del Valle de Aburrá	CO	Academia	Nacional	https://github.com/SIB-Colombia/logos/blob/main/socio-SiB-amva.png	4319	4319	0	11	368	368		
