grupoBio	registros	registros_continentales	registros_marinos	registros_salobres	especies	especies_continentales	especies_marinas	especies_salobres	especies_amenazadas	especies_cr_mads	especies_en_mads	especies_vu_mads	registros_amenazadas	registros_cr_mads	registros_en_mads	registros_vu_mads	especies_cites	especies_cites_i	especies_cites_i_ii	especies_cites_ii	especies_cites_iii	registros_cites	registros_cites_i	registros_cites_i_ii	registros_cites_ii	registros_cites_iii	especies_endemicas	especies_exoticas	especies_migratorias	registros_endemicas	registros_exoticas	registros_migratorias	especies_invasoras	registros_invasoras	especies_invasoras_griis	registros_invasoras_griis	especies_iucn	especies_ex_iucn	especies_ew_iucn	especies_cr_iucn	especies_en_iucn	especies_vu_iucn	especies_nt_iucn	especies_lc_iucn	especies_dd_iucn	especies_lr_lc_iucn	especies_lr_nt_iucn	registros_iucn	registros_ex_iucn	registros_ew_iucn	registros_cr_iucn	registros_en_iucn	registros_vu_iucn	registros_nt_iucn	registros_lc_iucn	registros_dd_iucn	registros_lr_lc_iucn	registros_lr_nt_iucn	especie_continentales_amenazadas	especies_Continentales_cr_mads	especiescontinentales_en_mads	especies_continentales_vu_mads	registros_continentales_amenaza	registros_continentales_cr_mads	registros_continentales_en_mads	registros_continentales_vu_mads	especies_continentales_cites	especies_continentales_cites_i	especies_Continentales_cites_i_ii	especies_continentales_cites_ii	especies_continentales_cites_iii	registros_continentales_cites	registros_continentales_cites_i	registros_continentales_cites_i_ii	registros_continentales_cites_ii	registros_continentales_cites_iii	especies_continentales_endemicas	especies_continentales_exoticas	especies_continentales_migratorias	registros_continentales_endemicas	registros_continentales_exoticas	registros_continentales_migratorias	especies_continentales_invasora	registros_continentales_invasora	especies_continentales_invasora_griis	registros_continentales_invasora_griis	especies_continentales_iucn	especies_continentales_ex_iucn	especies_continentales_ew_iucn	especies_continentales_cr_iucn	especies_continentales_en_iucn	especies_continentales_vu_iucn	especies_continentales_nt_iucn	especies_continentales_lc_iucn	especies_continentales_dd_iucn	especies_continentales_lr_lc_iucn	especies_continentales_lr_nt_iucn	registros_continentales_iucn	registros_continentales_ex_iucn	registros_continentales_ew_iucn	registros_continentales_cr_iucn	registros_continentales_en_iucn	registros_continentales_vu_iucn	registros_continentales_nt_iucn	registros_continentales_lc_iucn	registros_continentales_dd_iucn	registros_continentales_lr_lc_iucn	registros_continentales_lr_nt_iucn	especies_marinas_amenazadas	especies_marinas_en_mads	especies_marinas_cr_mads	especies_marinas_vu_mads	registros_marinas_amenaza	registros_marinas_cr_mads	registros_marinas_en_mads	registros_marinas_vu_mads	especies_marinas_cites	especies_marinas_cites_i	especies_marinas_cites_i_ii	especies_marinas_cites_ii	especies_marinas_cites_iii	registros_marinas_cites	registros_marinas_cites_i	registros_marinas_cites_i_ii	registros_marinas_cites_ii	registros_marinas_cites_iii	especies_marinas_endemicas	especies_marinas_exoticas	especies_marinas_migratorias	registros_marinas_endemicas	registros_marinas_exoticas	registros_marinas_migratorias	especies_marinas_invasora	registros_marinas_invasora	especies_marinas_invasora_griis	registros_marinas_invasora_griis	especies_marinas_iucn	especies_marinas_ex_iucn	especies_marinas_ew_iucn	especies_marinas_cr_iucn	especies_marinas_en_iucn	especies_marinas_vu_iucn	especies_marinas_nt_iucn	especies_marinas_lc_iucn	especies_marinas_dd_iucn	especies_marinas_lr_c_iucn	especies_marinas_lr_nt_iucn	registros_marinas_iucn	registros_marinas_ex_iucn	registros_marinas_ew_iucn	registros_marinas_cr_iucn	registros_marinas_en_iucn	registros_marinas_vu_iucn	registros_marinas_nt_iucn	registros_marinas_lc_iuc	registros_marinas_dd_iucn	registros_marinas_lr_lc_iucn	registros_marinas_lr_nt_iucn	especies_salobres_amenazadas	especies_salobres_en_mads
Abejas	25672	25541	10	46	400	400	0	0	9	3	3	3	324	87	10	227	0	0	0	0	0	0	0	0	0	0	0	1	0	0	2138	0	0	0	0	0	10	0	0	0	0	0	0	4	6	0	0	716	0	0	0	0	0	0	290	426	0	0	9	3	3	3	312	87	10	215	0	0	0	0	0	0	0	0	0	0	0	1	0	0	2138	0	0	0	0	0	10	0	0	0	0	0	0	4	6	0	0	716	0	0	0	0	0	0	290	426	0	0	0	0	0	0	0	0	0	0	0	0	0	0	0	0	0	0	0	0	0	0	0	0	0	0	0	0	0	0	0	0	0	0	0	0	0	0	0	0	0	0	0	0	0	0	0	0	0	0	0	0	0	0
Algas	38433	27002	25904	19132	430	313	201	7	0	0	0	0	0	0	0	0	0	0	0	0	0	0	0	0	0	0	0	1	0	0	2	0	0	0	0	0	2	0	0	0	0	0	0	2	0	0	0	10	0	0	0	0	0	0	10	0	0	0	0	0	0	0	0	0	0	0	0	0	0	0	0	0	0	0	0	0	0	1	0	0	2	0	0	0	0	0	2	0	0	0	0	0	0	2	0	0	0	10	0	0	0	0	0	0	10	0	0	0	0	0	0	0	0	0	0	0	0	0	0	0	0	0	0	0	0	0	0	0	0	0	0	0	0	0	0	0	0	0	0	0	0	0	0	0	0	0	0	0	0	0	0	0	0	0	0	0	0	0	0	0
Anfibios	155854	155725	1	2024	887	887	0	1	49	14	22	13	4323	2207	605	1511	36	0	0	36	0	12332	0	0	12332	0	0	2	0	0	1539	0	1	415	2	1539	737	0	0	63	116	88	46	382	42	0	0	132512	0	0	7901	5977	8306	8379	100608	1341	0	0	49	14	22	13	4321	2205	605	1511	36	0	0	36	0	12308	0	0	12308	0	0	2	0	0	1539	0	1	415	2	1539	737	0	0	63	116	88	46	382	42	0	0	132394	0	0	7895	5963	8300	8362	100533	1341	0	0	0	0	0	0	0	0	0	0	0	0	0	0	0	0	0	0	0	0	0	0	0	0	0	0	0	0	0	0	0	0	0	0	0	0	0	0	0	0	0	0	0	0	0	0	0	0	0	0	0	0	0	0
Angiospermas	2501310	2493577	615	24102	31292	31271	30	12	637	98	236	303	48511	3014	24963	20534	2044	7	0	2036	1	31159	164	0	30892	103	5429	232	0	165938	84938	0	4	914	22	30601	4140	2	5	149	275	225	92	3246	90	31	23	767933	52	1856	1995	11825	30806	4717	707809	2380	4849	1580	637	98	236	303	48395	3009	24888	20498	2041	7	0	2033	1	31086	161	0	30833	92	5427	232	0	165649	84894	0	4	914	22	30595	4139	2	5	149	275	225	92	3245	90	31	23	766074	52	1856	1992	11812	30488	4565	706467	2377	4834	1567	0	0	0	0	0	0	0	0	1	0	0	1	0	1	0	0	1	0	0	3	0	0	11	0	0	0	0	0	14	0	0	0	0	1	0	12	0	1	0	291	0	0	0	0	194	0	94	0	3	0	0	0
Animales	11195557	10866805	273109	242016	31780	28929	5512	394	431	52	138	241	193529	23598	49743	120188	612	45	1	536	30	1454900	30376	76	1364010	60438	480	105	158	196949	122923	897010	14	3624	47	115868	6037	1	0	109	208	320	237	4727	430	0	3	9684945	4	0	16459	41642	129650	174018	9305833	12679	0	99	417	52	137	228	181047	21728	46084	113235	547	44	1	472	30	1369413	26509	66	1282549	60289	480	105	158	196738	122916	883657	13	3358	47	115865	5262	1	0	104	199	288	224	4065	376	0	3	9435688	4	0	14941	29102	119489	167042	9089849	10603	0	97	79	14	6	59	11782	1783	3292	6707	165	11	1	152	1	78153	3475	10	74667	1	0	0	48	0	0	7983	3	266	0	0	1862	0	0	15	18	71	42	1617	99	0	0	200474	0	0	1453	12203	9785	6241	168792	2000	0	0	22	3
Antocerotas	266	266	0	0	19	19	0	0	0	0	0	0	0	0	0	0	0	0	0	0	0	0	0	0	0	0	1	0	0	4	0	0	0	0	0	0	0	0	0	0	0	0	0	0	0	0	0	0	0	0	0	0	0	0	0	0	0	0	0	0	0	0	0	0	0	0	0	0	0	0	0	0	0	0	0	0	1	0	0	4	0	0	0	0	0	0	0	0	0	0	0	0	0	0	0	0	0	0	0	0	0	0	0	0	0	0	0	0	0	0	0	0	0	0	0	0	0	0	0	0	0	0	0	0	0	0	0	0	0	0	0	0	0	0	0	0	0	0	0	0	0	0	0	0	0	0	0	0	0	0	0	0	0	0	0	0	0	0	0	0
Arácnidos	26363	26320	45	3055	1308	1305	0	0	8	0	3	5	303	0	52	251	0	0	0	0	0	0	0	0	0	0	0	4	0	0	242	0	0	0	2	32	2	0	0	0	0	0	0	2	0	0	0	335	0	0	0	0	0	0	335	0	0	0	8	0	3	5	301	0	52	249	0	0	0	0	0	0	0	0	0	0	0	4	0	0	242	0	0	0	2	32	2	0	0	0	0	0	0	2	0	0	0	335	0	0	0	0	0	0	335	0	0	0	0	0	0	0	0	0	0	0	0	0	0	0	0	0	0	0	0	0	0	0	0	0	0	0	0	0	0	0	0	0	0	0	0	0	0	0	0	0	0	0	0	0	0	0	0	0	0	0	0	0	0	0
Aves	9505381	9431609	25975	130529	2344	2329	123	22	131	15	52	64	146139	9744	43516	92879	299	10	0	275	14	1291216	13342	0	1231889	45985	77	25	158	158770	109387	897010	0	0	8	107339	1802	1	0	14	26	76	98	1584	3	0	0	9071021	4	0	3895	19323	89165	154298	8804142	194	0	0	131	15	52	64	143323	9700	41171	92452	299	10	0	275	14	1284402	13294	0	1225206	45902	77	25	158	158625	109386	883657	0	0	8	107338	1793	1	0	13	26	75	95	1580	3	0	0	8999682	4	0	3861	19311	88841	153249	8734232	184	0	0	6	4	0	2	2504	0	2290	214	5	2	0	3	0	96	10	0	86	0	0	0	48	0	0	7983	0	0	0	0	107	0	0	3	0	3	8	92	1	0	0	25335	0	0	28	0	62	347	24889	9	0	0	2	2
Cactus	4864	4855	0	0	91	91	0	0	0	0	0	0	0	0	0	0	28	0	0	28	0	1655	0	0	1655	0	3	0	0	212	0	0	0	0	0	0	35	0	0	0	3	2	2	25	3	0	0	2401	0	0	0	123	56	6	2081	135	0	0	0	0	0	0	0	0	0	0	28	0	0	28	0	1653	0	0	1653	0	3	0	0	212	0	0	0	0	0	0	35	0	0	0	3	2	2	25	3	0	0	2394	0	0	0	123	56	6	2074	135	0	0	0	0	0	0	0	0	0	0	0	0	0	0	0	0	0	0	0	0	0	0	0	0	0	0	0	0	0	0	0	0	0	0	0	0	0	0	0	0	0	0	0	0	0	0	0	0	0	0	0	0	0	0
Corales	98961	13814	85073	1540	190	98	168	1	6	1	1	4	3456	254	418	2784	108	0	0	108	0	82901	0	0	82901	0	0	0	0	0	0	0	0	0	0	0	71	0	0	2	2	8	4	50	5	0	0	92966	0	0	672	11939	8309	4549	67130	367	0	0	6	1	1	4	64	17	12	35	66	0	0	66	0	13283	0	0	13283	0	0	0	0	0	0	0	0	0	0	0	57	0	0	2	2	5	2	43	3	0	0	13288	0	0	29	27	475	100	12646	11	0	0	6	1	1	4	3392	237	406	2749	103	0	0	103	0	69556	0	0	69556	0	0	0	0	0	0	0	0	0	0	0	69	0	0	2	2	8	4	48	5	0	0	79672	0	0	643	11912	7834	4449	54478	356	0	0	0	0
Crustáceos	30295	12518	18423	5812	1846	1145	1225	43	24	0	16	8	860	0	98	762	0	0	0	0	0	0	0	0	0	0	0	2	0	0	80	0	3	5	3	97	117	0	0	1	0	7	1	76	32	0	0	1997	0	0	2	0	17	2	1565	411	0	0	24	0	16	8	504	0	98	406	0	0	0	0	0	0	0	0	0	0	0	2	0	0	80	0	2	3	3	97	108	0	0	1	0	7	1	71	28	0	0	1543	0	0	2	0	17	2	1328	194	0	0	7	0	0	7	359	0	0	359	0	0	0	0	0	0	0	0	0	0	0	0	0	0	0	0	2	2	0	0	17	0	0	0	0	0	0	10	7	0	0	436	0	0	0	0	0	0	220	216	0	0	4	0
Decápodos	16719	7126	9880	1741	1254	761	908	20	24	0	16	8	860	0	98	762	0	0	0	0	0	0	0	0	0	0	0	2	0	0	80	0	3	5	3	97	117	0	0	1	0	7	1	76	32	0	0	1997	0	0	2	0	17	2	1565	411	0	0	24	0	16	8	504	0	98	406	0	0	0	0	0	0	0	0	0	0	0	2	0	0	80	0	2	3	3	97	108	0	0	1	0	7	1	71	28	0	0	1543	0	0	2	0	17	2	1328	194	0	0	7	0	0	7	359	0	0	359	0	0	0	0	0	0	0	0	0	0	0	0	0	0	0	0	2	2	0	0	17	0	0	0	0	0	0	10	7	0	0	436	0	0	0	0	0	0	220	216	0	0	4	0
Dipteros	105044	104253	135	18416	1743	1730	2	0	0	0	0	0	0	0	0	0	0	0	0	0	0	0	0	0	0	0	0	4	0	0	613	0	0	0	0	0	0	0	0	0	0	0	0	0	0	0	0	0	0	0	0	0	0	0	0	0	0	0	0	0	0	0	0	0	0	0	0	0	0	0	0	0	0	0	0	0	0	4	0	0	613	0	0	0	0	0	0	0	0	0	0	0	0	0	0	0	0	0	0	0	0	0	0	0	0	0	0	0	0	0	0	0	0	0	0	0	0	0	0	0	0	0	0	0	0	0	0	0	0	0	0	0	0	0	0	0	0	0	0	0	0	0	0	0	0	0	0	0	0	0	0	0	0	0	0	0	0	0	0	0
Equinodermos	7091	807	6202	237	388	135	349	1	0	0	0	0	0	0	0	0	1	0	0	0	1	2	0	0	0	2	0	0	0	0	0	0	0	0	0	0	30	0	0	0	1	0	0	26	3	0	0	226	0	0	0	2	0	0	175	49	0	0	0	0	0	0	0	0	0	0	1	0	0	0	1	1	0	0	0	1	0	0	0	0	0	0	0	0	0	0	21	0	0	0	1	0	0	17	3	0	0	44	0	0	0	1	0	0	30	13	0	0	0	0	0	0	0	0	0	0	1	0	0	0	1	1	0	0	0	1	0	0	0	0	0	0	0	0	0	0	25	0	0	0	1	0	0	21	3	0	0	177	0	0	0	1	0	0	140	36	0	0	0	0
Escarabajos	206474	202763	211	28148	2451	2444	1	0	3	0	1	2	132	0	32	100	0	0	0	0	0	0	0	0	0	0	0	3	0	0	501	0	0	0	1	460	36	0	0	0	2	0	3	24	7	0	0	7323	0	0	0	87	0	294	6831	111	0	0	3	0	1	2	132	0	32	100	0	0	0	0	0	0	0	0	0	0	0	3	0	0	500	0	0	0	1	459	36	0	0	0	2	0	3	24	7	0	0	7046	0	0	0	87	0	294	6554	111	0	0	0	0	0	0	0	0	0	0	0	0	0	0	0	0	0	0	0	0	0	0	0	0	0	0	0	0	0	0	0	0	0	0	0	0	0	0	0	0	0	0	0	0	0	0	0	0	0	0	0	0	0	0
Especies Maderables	13123	13049	0	0	28	28	0	0	26	8	11	7	12859	1481	2395	8983	4	0	0	3	1	295	0	0	192	103	9	0	0	389	0	0	0	0	0	0	20	0	0	1	9	5	0	4	0	0	1	12193	0	0	35	1741	1500	0	8737	0	0	180	26	8	11	7	12785	1478	2335	8972	4	0	0	3	1	281	0	0	189	92	9	0	0	389	0	0	0	0	0	0	20	0	0	1	9	5	0	4	0	0	1	12132	0	0	35	1737	1443	0	8737	0	0	180	0	0	0	0	0	0	0	0	0	0	0	0	0	0	0	0	0	0	0	0	0	0	0	0	0	0	0	0	0	0	0	0	0	0	0	0	0	0	0	0	0	0	0	0	0	0	0	0	0	0	0	0
Esponjas	9580	525	9024	4133	207	145	135	0	0				0				0					0					0	0		0	0						0											0											0				0				0					0					0	0		0	0						0											0											0				0				0					0					0	0		0	0						0											0											0	
Fanerágamas	26427	26337	5	901	313	313	0	0	72	11	28	33	2366	312	1391	663	0	0	0	0	0	0	0	0	0	0	42	1	0	1831	28	0	0	0	0	0	109	0	0	1	7	18	0	76	1	3	3	14799	0	0	3	82	841	0	12930	22	558	363	72	11	28	33	2352	311	1386	655	0	0	0	0	0	0	0	0	0	0	42	1	0	1818	28	0	0	0	0	0	109	0	0	1	7	18	0	76	1	3	3	14751	0	0	2	82	813	0	12915	22	554	363	0	0	0	0	0	0	0	0	0	0	0	0	0	0	0	0	0	0	0	0	0	0	0	0	0	0	0	0	0	0	0	0	0	0	0	0	0	0	0	0	0	0	0	0	0	0	0	0	0	0	0	0
Frailejones	23033	23033	0	0	102	102	0	0	29	6	13	10	2815	385	1743	687	0	0	0	0	0	0	0	0	0	0	53	0	0	15035	0	0	0	0	0	0	63	0	0	11	18	12	2	16	4	0	0	17836	0	0	236	1666	1107	555	14245	27	0	0	29	6	13	10	2815	385	1743	687	0	0	0	0	0	0	0	0	0	0	53	0	0	15035	0	0	0	0	0	0	63	0	0	11	18	12	2	16	4	0	0	17836	0	0	236	1666	1107	555	14245	27	0	0	0	0	0	0	0	0	0	0	0	0	0	0	0	0	0	0	0	0	0	0	0	0	0	0	0	0	0	0	0	0	0	0	0	0	0	0	0	0	0	0	0	0	0	0	0	0	0	0	0	0	0	0
Gimnospermas	22813	22811	0	0	112	112	0	0	25	8	9	8	1634	147	505	982	22	1	0	21	0	844	23	0	821	0	11	8	0	485	19235	0	0	0	3	9493	29	0	0	6	1	3	10	8	1	0	0	2231	0	0	152	30	908	356	775	10	0	0	25	8	9	8	1632	146	505	981	22	1	0	21	0	843	23	0	820	0	11	8	0	484	19235	0	0	0	3	9493	29	0	0	6	1	3	10	8	1	0	0	2229	0	0	151	30	908	356	774	10	0	0	0	0	0	0	0	0	0	0	0	0	0	0	0	0	0	0	0	0	0	0	0	0	0	0	0	0	0	0	0	0	0	0	0	0	0	0	0	0	0	0	0	0	0	0	0	0	0	0	0	0	0	0
Helechos	141078	140972	4	524	2108	2108	2	2	0	0	0	0	0	0	0	0	64	0	0	64	0	30347	0	0	30347	0	80	5	0	898	1420	0	0	0	3	678	12	0	0	0	0	0	0	12	0	0	0	1019	0	0	0	0	0	0	1019	0	0	0	0	0	0	0	0	0	0	0	64	0	0	64	0	30342	0	0	30342	0	80	5	0	894	1415	0	0	0	3	678	12	0	0	0	0	0	0	12	0	0	0	1019	0	0	0	0	0	0	1019	0	0	0	0	0	0	0	0	0	0	0	0	0	0	0	0	0	0	0	0	0	0	0	0	0	0	0	0	0	0	0	2	0	0	0	0	0	0	2	0	0	0	3	0	0	0	0	0	0	3	0	0	0	0	0
Hepáticas	61572	61525	0	0	1014	1012	0	0	45	2	1	42	644	5	84	555	0	0	0	0	0	0	0	0	0	0	29	0	0	358	0	0	0	0	0	0	3	0	0	0	1	0	0	2	0	0	0	239	0	0	0	3	0	0	236	0	0	0	45	2	1	42	642	5	84	553	0	0	0	0	0	0	0	0	0	0	28	0	0	356	0	0	0	0	0	0	3	0	0	0	1	0	0	2	0	0	0	239	0	0	0	3	0	0	236	0	0	0	0	0	0	0	0	0	0	0	0	0	0	0	0	0	0	0	0	0	0	0	0	0	0	0	0	0	0	0	0	0	0	0	0	0	0	0	0	0	0	0	0	0	0	0	0	0	0	0	0	0	0	0
Hongos	99327	99310	64	1688	4056	4054	1	0	0	0	0	0	0	0	0	0	0	0	0	0	0	0	0	0	0	0	110	0	0	885	0	0	0	0	0	0	17	0	0	1	0	3	3	9	1	0	0	214	0	0	5	0	32	20	153	4	0	0	0	0	0	0	0	0	0	0	0	0	0	0	0	0	0	0	0	0	110	0	0	885	0	0	0	0	0	0	17	0	0	1	0	3	3	9	1	0	0	214	0	0	5	0	32	20	153	4	0	0	0	0	0	0	0	0	0	0	0	0	0	0	0	0	0	0	0	0	0	0	0	0	0	0	0	0	0	0	0	0	0	0	0	0	0	0	0	0	0	0	0	0	0	0	0	0	0	0	0	0	0	0
Hormigas	119579	119121	22	1799	1012	1010	0	0	2	0	0	2	4	0	0	4	0	0	0	0	0	0	0	0	0	0	0	7	0	0	3662	0	1	1481	2	21	0	0	0	0	0	0	0	0	0	0	0	0	0	0	0	0	0	0	0	0	0	0	2	0	0	2	4	0	0	4	0	0	0	0	0	0	0	0	0	0	0	7	0	0	3662	0	1	1481	2	21	0	0	0	0	0	0	0	0	0	0	0	0	0	0	0	0	0	0	0	0	0	0	0	0	0	0	0	0	0	0	0	0	0	0	0	0	0	0	0	0	0	0	0	0	0	0	0	0	0	0	0	0	0	0	0	0	0	0	0	0	0	0	0	0	0	0	0	0	0	0	0	0	0	0
Insectos	738549	732800	472	61048	14573	14538	7	2	26	4	10	12	598	95	126	377	0	0	0	0	0	0	0	0	0	0	0	19	0	0	6929	0	1	1481	3	481	199	0	0	1	7	6	5	157	23	0	0	10917	0	0	6	108	22	315	9876	590	0	0	26	4	10	12	586	95	126	365	0	0	0	0	0	0	0	0	0	0	0	19	0	0	6928	0	1	1481	3	480	199	0	0	1	7	6	5	157	23	0	0	10626	0	0	6	108	22	315	9585	590	0	0	0	0	0	0	0	0	0	0	0	0	0	0	0	0	0	0	0	0	0	0	0	0	0	0	0	0	0	0	0	0	0	0	0	0	0	0	0	0	0	0	0	0	0	0	0	0	0	0	0	0	0	0
Invertebrados	989539	840335	144214	83727	22857	20982	3458	65	77	5	30	42	7172	349	694	6129	130	0	0	129	1	87538	0	0	87536	2	0	36	0	0	7663	0	5	1742	11	969	513	0	0	5	11	23	10	385	79	0	0	111714	0	0	695	12064	8362	4866	84243	1484	0	0	77	5	30	42	2773	112	288	2373	81	0	0	80	1	13359	0	0	13358	1	0	36	0	0	7662	0	4	1740	11	968	459	0	0	5	11	20	8	348	67	0	0	26434	0	0	52	137	528	417	24446	854	0	0	22	1	1	20	4385	237	406	3742	123	0	0	122	1	74115	0	0	74114	1	0	0	0	0	0	0	2	2	0	0	170	0	0	2	4	8	4	129	23	0	0	84929	0	0	643	11927	7834	4449	59450	626	0	0	4	0
Líquenes	76608	76594	2	0	1803	1801	1	0	0	0	0	0	0	0	0	0	0	0	0	0	0	0	0	0	0	0	106	0	0	873	0	0	0	0	0	0	2	0	0	0	0	0	0	2	0	0	0	42	0	0	0	0	0	0	42	0	0	0	0	0	0	0	0	0	0	0	0	0	0	0	0	0	0	0	0	0	106	0	0	873	0	0	0	0	0	0	2	0	0	0	0	0	0	2	0	0	0	42	0	0	0	0	0	0	42	0	0	0	0	0	0	0	0	0	0	0	0	0	0	0	0	0	0	0	0	0	0	0	0	0	0	0	0	0	0	0	0	0	0	0	0	0	0	0	0	0	0	0	0	0	0	0	0	0	0	0	0	0	0	0
Magnolias y afines	19131	19084	2	0	138	137	1	0	45	15	20	10	7067	251	783	6033	0	0	0	0	0	0	0	0	0	0	38	0	0	1382	0	0	0	0	0	0	79	0	0	13	20	3	2	41	0	0	0	8313	0	0	213	674	610	62	6754	0	0	0	45	15	20	10	7054	250	783	6021	0	0	0	0	0	0	0	0	0	0	38	0	0	1369	0	0	0	0	0	0	78	0	0	13	20	3	2	40	0	0	0	8286	0	0	212	674	610	62	6728	0	0	0	0	0	0	0	0	0	0	0	0	0	0	0	0	0	0	0	0	0	0	0	0	0	0	0	0	0	0	0	1	0	0	0	0	0	0	1	0	0	0	2	0	0	0	0	0	0	2	0	0	0	0	0
Mamíferos	195389	191845	1993	1183	737	727	20	1	33	3	9	21	12115	877	1036	10202	89	27	0	55	7	44916	13583	0	17931	13402	50	19	0	7213	1521	0	0	0	9	1201	450	0	0	5	14	38	17	324	52	0	0	162518	0	0	1049	1128	16792	3240	135915	4394	0	0	32	3	9	20	10540	846	1035	8659	80	26	0	47	7	42869	11997	0	17533	13339	50	19	0	7170	1521	0	0	0	9	1201	441	0	0	5	14	37	16	318	51	0	0	159278	0	0	1018	1121	16584	3234	132970	4351	0	0	3	1	0	2	1536	0	1	1535	19	4	0	15	0	1850	1538	0	312	0	0	0	0	0	0	0	0	0	0	0	19	0	0	0	0	1	1	16	1	0	0	1852	0	0	0	0	146	2	1699	5	0	0	0	0
Mamíferos Marinos	1926	257	1660	0	23	15	17	0	6	0	4	2	1621	0	179	1442	23	7	0	16	0	1890	1626	0	264	0	0	0	0	0	0	0	0	0	0	0	22	0	0	0	1	2	2	16	1	0	0	1886	0	0	0	2	173	8	1698	5	0	0	6	0	4	2	228	0	178	50	15	7	0	8	0	250	231	0	19	0	0	0	0	0	0	0	0	0	0	0	14	0	0	0	1	2	1	10	0	0	0	247	0	0	0	2	173	6	66	0	0	0	2	1	0	1	1390	0	1	1389	17	3	0	14	0	1631	1392	0	239	0	0	0	0	0	0	0	0	0	0	0	16	0	0	0	0	0	1	14	1	0	0	1630	0	0	0	0	0	2	1623	5	0	0	0	0
Mangles	1383	1006	247	453	7	7	5	4	1	0	1	0	138	0	138	0	0	0	0	0	0	0	0	0	0	0	0	0	0	0	0	0	0	0	0	0	6	0	0	0	0	2	0	4	0	0	0	1335	0	0	0	0	419	0	916	0	0	0	1	0	1	0	83	0	83	0	0	0	0	0	0	0	0	0	0	0	0	0	0	0	0	0	0	0	0	0	6	0	0	0	0	2	0	4	0	0	0	959	0	0	0	0	170	0	789	0	0	0	0	0	0	0	0	0	0	0	0	0	0	0	0	0	0	0	0	0	0	0	0	0	0	0	0	0	0	0	4	0	0	0	0	1	0	3	0	0	0	246	0	0	0	0	194	0	52	0	0	0	0	0
Mariposas	118887	118750	2	0	4742	4738	0	0	9	1	4	4	130	8	82	40	0	0	0	0	0	0	0	0	0	0	0	0	0	0	0	0	0	0	0	0	29	0	0	0	0	0	0	29	0	0	0	1317	0	0	0	0	0	0	1317	0	0	0	9	1	4	4	130	8	82	40	0	0	0	0	0	0	0	0	0	0	0	0	0	0	0	0	0	0	0	0	29	0	0	0	0	0	0	29	0	0	0	1306	0	0	0	0	0	0	1306	0	0	0	0	0	0	0	0	0	0	0	0	0	0	0	0	0	0	0	0	0	0	0	0	0	0	0	0	0	0	0	0	0	0	0	0	0	0	0	0	0	0	0	0	0	0	0	0	0	0	0	0	0	0	0
Medusas	5478	272	5205	150	108	62	68	6	0	0	0	0	0	0	0	0	4	0	0	4	0	4431	0	0	4431	0	0	0	0	0	0	0	0	0	0	0	3	0	0	0	1	0	0	2	0	0	0	4378	0	0	0	15	0	0	4363	0	0	0	0	0	0	0	0	0	0	0	4	0	0	4	0	37	0	0	37	0	0	0	0	0	0	0	0	0	0	0	3	0	0	0	1	0	0	2	0	0	0	16	0	0	0	1	0	0	15	0	0	0	0	0	0	0	0	0	0	0	4	0	0	4	0	4394	0	0	4394	0	0	0	0	0	0	0	0	0	0	0	3	0	0	0	1	0	0	2	0	0	0	4362	0	0	0	14	0	0	4348	0	0	0	0	0
Microorganismos	207812	144566	61688	42163	2149	1892	437	14	0	0	0	0	0	0	0	0	0	0	0	0	0	0	0	0	0	0	0	9	0	0	133	0	0	0	1	5	0	0	0	0	0	0	0	0	0	0	0	0	0	0	0	0	0	0	0	0	0	0	0	0	0	0	0	0	0	0	0	0	0	0	0	0	0	0	0	0	0	8	0	0	33	0	0	0	1	3	0	0	0	0	0	0	0	0	0	0	0	0	0	0	0	0	0	0	0	0	0	0	0	0	0	0	0	0	0	0	0	0	0	0	0	0	0	0	0	0	0	8	0	0	100	0	0	0	1	2	0	0	0	0	0	0	0	0	0	0	0	0	0	0	0	0	0	0	0	0	0	0	0	0
Moluscos	32212	23580	8596	2827	3084	2652	1137	10	12	0	0	12	1932	0	0	1932	0	0	0	0	0	0	0	0	0	0	0	9	0	0	400	0	1	256	3	359	91	0	0	1	0	2	0	72	16	0	0	895	0	0	15	0	14	0	799	67	0	0	12	0	0	12	1316	0	0	1316	0	0	0	0	0	0	0	0	0	0	0	9	0	0	400	0	1	256	3	359	69	0	0	1	0	2	0	56	10	0	0	582	0	0	15	0	14	0	507	46	0	0	8	0	0	8	613	0	0	613	0	0	0	0	0	0	0	0	0	0	0	0	0	0	0	0	0	0	0	0	56	0	0	0	0	0	0	48	8	0	0	282	0	0	0	0	0	0	264	18	0	0	0	0
Musgos	95945	95681	1	703	1574	1574	0	0	39	6	3	30	406	53	16	337	0	0	0	0	0	0	0	0	0	0	49	0	0	508	0	0	0	0	0	0	0	0	0	0	0	0	0	0	0	0	0	0	0	0	0	0	0	0	0	0	0	0	39	6	3	30	406	53	16	337	0	0	0	0	0	0	0	0	0	0	49	0	0	507	0	0	0	0	0	0	0	0	0	0	0	0	0	0	0	0	0	0	0	0	0	0	0	0	0	0	0	0	0	0	0	0	0	0	0	0	0	0	0	0	0	0	0	0	0	0	0	0	0	0	0	0	0	0	0	0	0	0	0	0	0	0	0	0	0	0	0	0	0	0	0	0	0	0	0	0	0	0	0	0
Orquídeas	59180	59074	3	0	3922	3918	1	0	192	6	61	125	2163	197	801	1165	1995	7	0	1988	0	21030	164	0	20866	0	1134	3	0	7068	440	0	0	0	0	0	72	0	0	6	5	1	0	50	10	0	0	1382	0	0	17	61	1	0	1277	26	0	0	192	6	61	125	2163	197	801	1165	1992	7	0	1985	0	20979	161	0	20818	0	1133	3	0	7056	440	0	0	0	0	0	72	0	0	6	5	1	0	50	10	0	0	1373	0	0	17	59	1	0	1270	26	0	0	0	0	0	0	0	0	0	0	1	0	0	1	0	1	0	0	1	0	0	0	0	0	0	0	0	0	0	0	1	0	0	0	0	0	0	1	0	0	0	1	0	0	0	0	0	0	1	0	0	0	0	0
Palmas	149833	147092	9	216	370	370	1	1	53	7	22	24	11006	119	9010	1877	0	0	0	0	0	0	0	0	0	0	45	4	0	2615	397	0	0	0	1	147	38	0	0	3	5	6	1	13	1	5	2	14279	0	0	173	456	7047	31	5240	14	970	284	53	7	22	24	11004	119	9008	1877	0	0	0	0	0	0	0	0	0	0	45	4	0	2615	397	0	0	0	1	147	38	0	0	3	5	6	1	13	1	5	2	14274	0	0	173	456	7044	31	5240	14	970	282	0	0	0	0	0	0	0	0	0	0	0	0	0	0	0	0	0	0	0	1	0	0	8	0	0	0	0	0	0	0	0	0	0	0	0	0	0	0	0	0	0	0	0	0	0	0	0	0	0	0	0	0
Pastos Marinos	53	20	33	0	4	4	2	0	0	0	0	0	0	0	0	0	0	0	0	0	0	0	0	0	0	0	0	0	0	0	0	0	0	0	0	0	3	0	0	0	0	0	0	3	0	0	0	44	0	0	0	0	0	0	44	0	0	0	0	0	0	0	0	0	0	0	0	0	0	0	0	0	0	0	0	0	0	0	0	0	0	0	0	0	0	0	3	0	0	0	0	0	0	3	0	0	0	11	0	0	0	0	0	0	11	0	0	0	0	0	0	0	0	0	0	0	0	0	0	0	0	0	0	0	0	0	0	0	0	0	0	0	0	0	0	0	2	0	0	0	0	0	0	2	0	0	0	33	0	0	0	0	0	0	33	0	0	0	0	0
Peces	249566	151080	97900	17093	4155	3223	1877	304	101	5	9	87	10201	2138	570	7493	21	1	0	14	6	937	1	0	179	757	353	17	0	30966	2088	0	8	1467	15	2787	2081	0	0	12	30	76	49	1719	195	0	0	140742	0	0	542	2316	2104	2330	128781	4669	0	0	88	5	8	75	8772	2126	217	6429	14	1	0	7	6	781	1	0	24	756	353	17	0	30943	2088	0	8	1203	15	2786	1386	0	0	8	21	49	42	1110	156	0	0	54184	0	0	384	2269	1437	886	45928	3280	0	0	42	6	2	34	1420	12	353	1055	12	0	0	12	0	155	0	0	155	0	0	0	0	0	0	0	1	264	0	0	1549	0	0	9	13	55	28	1372	72	0	0	86367	0	0	157	44	663	1432	82715	1356	0	0	15	0
Peces Marinos	46754	2942	43752	260	873	482	806	4	10	0	2	8	157	0	80	77	4	0	0	4	0	27	0	0	27	0	0	0	0	0	0	0	0	0	0	0	717	0	0	1	4	15	10	657	30	0	0	45166	0	0	7	32	119	1102	42937	969	0	0	5	0	1	4	19	0	7	12	2	0	0	2	0	7	0	0	7	0	0	0	0	0	0	0	0	0	0	0	413	0	0	0	3	9	9	377	15	0	0	2729	0	0	0	9	23	111	2538	48	0	0	9	2	0	7	138	0	73	65	3	0	0	3	0	20	0	0	20	0	0	0	0	0	0	0	0	0	0	0	679	0	0	1	3	15	9	626	25	0	0	42422	0	0	7	23	96	991	40384	921	0	0	0	0
Peces dulceacuícolas	100743	100578	0	721	1458	1458	0	6	52	2	3	47	6699	2093	203	4403	7	0	0	1	6	762	0	0	5	757	346	0	0	30933	0	0	0	0	2	705	370	0	0	2	14	19	17	226	92	0	0	41839	0	0	370	2234	995	706	34879	2655	0	0	52	2	3	47	6692	2093	203	4396	7	0	0	1	6	761	0	0	5	756	346	0	0	30910	0	0	0	0	2	704	370	0	0	2	14	19	17	226	92	0	0	41742	0	0	369	2232	992	703	34798	2648	0	0	0	0	0	0	0	0	0	0	0	0	0	0	0	0	0	0	0	0	0	0	0	0	0	0	0	0	0	0	0	0	0	0	0	0	0	0	0	0	0	0	0	0	0	0	0	0	0	0	0	0	1	0
Pinos y afines	20333	20333	0	0	63	63	0	0	0	0	0	0	0	0	0	0	0	0	0	0	0	0	0	0	0	0	0	8	0	0	19235	0	0	0	3	9493	3	0	0	0	0	0	0	3	0	0	0	152	0	0	0	0	0	0	152	0	0	0	0	0	0	0	0	0	0	0	0	0	0	0	0	0	0	0	0	0	0	8	0	0	19235	0	0	0	3	9493	3	0	0	0	0	0	0	3	0	0	0	152	0	0	0	0	0	0	152	0	0	0	0	0	0	0	0	0	0	0	0	0	0	0	0	0	0	0	0	0	0	0	0	0	0	0	0	0	0	0	0	0	0	0	0	0	0	0	0	0	0	0	0	0	0	0	0	0	0	0	0	0	0	0
Plantas	2889068	2871324	27915	54483	36910	36786	223	21	746	114	249	383	51195	3219	25568	22408	2130	8	0	2121	1	62350	187	0	62060	103	5614	246	0	168489	105595	0	4	914	28	40772	4190	2	5	155	277	228	102	3273	92	31	23	771751	52	1856	2147	11858	31714	5073	710049	2509	4849	1580	746	114	249	383	51075	3213	25493	22369	2127	8	0	2118	1	62271	184	0	61995	92	5611	246	0	168192	105546	0	4	914	28	40766	4189	2	5	155	277	228	102	3272	92	31	23	769890	52	1856	2143	11845	31396	4921	708706	2506	4834	1567	0	0	0	0	0	0	0	0	1	0	0	1	0	1	0	0	1	0	0	3	0	0	11	0	0	0	0	0	16	0	0	0	0	1	0	14	0	1	0	294	0	0	0	0	194	0	97	0	3	0	0	0
Reptiles	91986	89163	2017	339	752	750	9	1	40	10	16	14	13579	8283	3322	1974	37	7	1	27	2	17961	3450	76	14143	292	0	6	0	0	725	0	0	0	2	2033	445	0	0	10	11	19	16	327	57	0	3	66407	0	0	2377	834	4921	893	52129	593	0	99	40	10	16	14	11318	6739	2768	1811	37	7	1	27	2	15694	1217	66	14120	291	0	6	0	0	720	0	0	0	2	2033	444	0	0	10	11	19	16	326	57	0	3	63714	0	0	1731	301	3799	893	51739	593	0	97	6	2	3	1	1937	1534	242	161	6	5	1	0	0	1937	1927	10	0	0	0	0	0	0	0	0	0	0	0	0	9	0	0	1	1	4	0	3	0	0	0	1962	0	0	625	232	1080	0	25	0	0	0	1	1
Tortugas marinas	3449	1167	1975	0	6	6	5	0	5	3	1	1	3398	2456	702	240	5	5	0	0	0	3398	3398	0	0	0	0	0	0	0	0	0	0	0	0	0	5	0	0	1	1	3	0	0	0	0	0	3398	0	0	755	702	1941	0	0	0	0	0	5	3	1	1	1165	918	169	78	5	5	0	0	0	1165	1165	0	0	0	0	0	0	0	0	0	0	0	0	0	5	0	0	1	1	3	0	0	0	0	0	1165	0	0	126	169	870	0	0	0	0	0	5	1	3	1	1927	1534	232	161	5	5	0	0	0	1927	1927	0	0	0	0	0	0	0	0	0	0	0	0	0	5	0	0	1	1	3	0	0	0	0	0	1927	0	0	625	232	1070	0	0	0	0	0	0	0
Vertebrados	10199855	10020315	128791	152221	8916	7941	2053	329	354	47	108	199	186357	23249	49049	114059	482	45	1	407	29	1367362	30376	76	1276474	60436	480	69	158	196949	115260	897010	9	1882	36	114899	5524	1	0	104	197	297	227	4342	351	0	3	9573231	4	0	15764	29578	121288	169152	9221590	11195	0	99	340	47	107	186	178274	21616	45796	110862	466	44	1	392	29	1356054	26509	66	1269191	60288	480	69	158	196738	115254	883657	9	1618	36	114897	4803	1	0	99	188	268	216	3717	309	0	3	9409254	4	0	14889	28965	118961	166625	9065403	9749	0	97	57	13	5	39	7397	1546	2886	2965	42	11	1	30	0	4038	3475	10	553	0	0	0	48	0	0	7983	1	264	0	0	1692	0	0	13	14	63	38	1488	76	0	0	115545	0	0	810	276	1951	1792	109342	1374	0	0	18	3
Zamias	956	955	0	0	30	30	0	0	21	8	9	4	848	147	505	196	22	1	0	21	0	844	23	0	821	0	11	0	0	485	0	0	0	0	0	0	18	0	0	6	1	1	9	0	1	0	0	813	0	0	152	30	301	320	0	10	0	0	21	8	9	4	847	146	505	196	22	1	0	21	0	843	23	0	820	0	11	0	0	484	0	0	0	0	0	0	18	0	0	6	1	1	9	0	1	0	0	812	0	0	151	30	301	320	0	10	0	0	0	0	0	0	0	0	0	0	0	0	0	0	0	0	0	0	0	0	0	0	0	0	0	0	0	0	0	0	0	0	0	0	0	0	0	0	0	0	0	0	0	0	0	0	0	0	0	0	0	0	0	0
