stateProvince	registros	registros_continentales	registros_marinos	registros_salobres	especies	especies_continentales	especies_marinas	especies_salobres	especies_amenazadas	especies_cr_mads	especies_en_mads	especies_vu_mads	registros_amenazadas	registros_cr_mads	registros_en_mads	registros_vu_mads	especies_cites	especies_cites_i	especies_cites_i_ii	especies_cites_ii	especies_cites_iii	registros_cites	registros_cites_i	registros_cites_i_ii	registros_cites_ii	registros_cites_iii	especies_endemicas	especies_exoticas	especies_migratorias	registros_endemicas	registros_exoticas	registros_migratorias	especies_invasoras	registros_invasoras	especies_invasoras_griis	registros_invasoras_griis	especies_iucn	especies_ex_iucn	especies_ew_iucn	especies_cr_iucn	especies_en_iucn	especies_vu_iucn	especies_nt_iucn	especies_lc_iucn	especies_dd_iucn	especies_lr_lc_iucn	especies_lr_nt_iucn	registros_iucn	registros_ex_iucn	registros_ew_iucn	registros_cr_iucn	registros_en_iucn	registros_vu_iucn	registros_nt_iucn	registros_lc_iucn	registros_dd_iucn	registros_lr_lc_iucn	registros_lr_nt_iucn	especie_continentales_amenazadas	especies_Continentales_cr_mads	especiescontinentales_en_mads	especies_continentales_vu_mads	registros_continentales_amenaza	registros_continentales_cr_mads	registros_continentales_en_mads	registros_continentales_vu_mads	especies_continentales_cites	especies_continentales_cites_i	especies_Continentales_cites_i_ii	especies_continentales_cites_ii	especies_continentales_cites_iii	registros_continentales_cites	registros_continentales_cites_i	registros_continentales_cites_i_ii	registros_continentales_cites_ii	registros_continentales_cites_iii	especies_continentales_endemicas	especies_continentales_exoticas	especies_continentales_migratorias	registros_continentales_endemicas	registros_continentales_exoticas	registros_continentales_migratorias	especies_continentales_invasora	registros_continentales_invasora	especies_continentales_invasora_griis	registros_continentales_invasora_griis	especies_continentales_iucn	especies_continentales_ex_iucn	especies_continentales_ew_iucn	especies_continentales_cr_iucn	especies_continentales_en_iucn	especies_continentales_vu_iucn	especies_continentales_nt_iucn	especies_continentales_lc_iucn	especies_continentales_dd_iucn	especies_continentales_lr_lc_iucn	especies_continentales_lr_nt_iucn	registros_continentales_iucn	registros_continentales_ex_iucn	registros_continentales_ew_iucn	registros_continentales_cr_iucn	registros_continentales_en_iucn	registros_continentales_vu_iucn	registros_continentales_nt_iucn	registros_continentales_lc_iucn	registros_continentales_dd_iucn	registros_continentales_lr_lc_iucn	registros_continentales_lr_nt_iucn	especies_marinas_amenazadas	especies_marinas_en_mads	especies_marinas_cr_mads	especies_marinas_vu_mads	registros_marinas_amenaza	registros_marinas_cr_mads	registros_marinas_en_mads	registros_marinas_vu_mads	especies_marinas_cites	especies_marinas_cites_i	especies_marinas_cites_i_ii	especies_marinas_cites_ii	especies_marinas_cites_iii	registros_marinas_cites	registros_marinas_cites_i	registros_marinas_cites_i_ii	registros_marinas_cites_ii	registros_marinas_cites_iii	especies_marinas_endemicas	especies_marinas_exoticas	especies_marinas_migratorias	registros_marinas_endemicas	registros_marinas_exoticas	registros_marinas_migratorias	especies_marinas_invasora	registros_marinas_invasora	especies_marinas_invasora_griis	registros_marinas_invasora_griis	especies_marinas_iucn	especies_marinas_ex_iucn	especies_marinas_ew_iucn	especies_marinas_cr_iucn	especies_marinas_en_iucn	especies_marinas_vu_iucn	especies_marinas_nt_iucn	especies_marinas_lc_iucn	especies_marinas_dd_iucn	especies_marinas_lr_c_iucn	especies_marinas_lr_nt_iucn	registros_marinas_iucn	registros_marinas_ex_iucn	registros_marinas_ew_iucn	registros_marinas_cr_iucn	registros_marinas_en_iucn	registros_marinas_vu_iucn	registros_marinas_nt_iucn	registros_marinas_lc_iuc	registros_marinas_dd_iucn	registros_marinas_lr_lc_iucn	registros_marinas_lr_nt_iucn	especies_salobres_amenazadas	especies_salobres_en_mads
Amazonas	230505	230445	0	4025	9679	9678		20	66	6	17	43	6806	4350	1965	491	294	17		265	12	28542	673		26543	1326	166	90	66	548	1219	5146	2	23	16	2281	2768		2	3	13	42	42	2609	34	14	6	131374		2	27	116	6024	1312	118888	344	178	125	66	6	17	43	6806	4350	1965	491	294	17		265	12	28542	673		26543	1326	166	90	66	547	1219	5146	2	23	16	2281	2768		2	3	13	42	42	2609	34	14	6	131364		2	27	116	6024	1311	118879	344	178	125																																																			1	1
Antioquia	1529974	1528348	886	13456	20309	20202	160	98	420	51	139	230	33634	2680	12936	18018	1121	28	1	1072	20	138078	3275	3	128890	5910	2117	263	120	48986	22672	111482	12	244	56	13481	4551	2	4	70	174	229	157	3765	119	14	15	1158490	18	56	2569	4581	22839	15319	1110720	1185	936	256	411	50	138	223	33600	2679	12930	17991	1101	28	1	1052	20	137943	3273	3	128760	5907	2117	263	120	48979	22671	111374	12	244	56	13481	4489	2	4	69	173	228	156	3713	113	14	15	1157575	18	56	2568	4580	22836	15293	1109845	1178	934	256	12	2	1	9	14	1	2	11	24			24		41			41			1	16	0	4	59					114			1	1	1	2	104	4	1		284			1	1	1	4	271	4	2		9	1
Arauca	69358	69358	0	3015	4207	4207		17	36	3	10	23	311	13	44	254	216	10		190	16	5176	187		4582	407	103	78	77	423	628	2014	1	2	12	329	1490			2	9	24	27	1412	9	4	2	38141			2	55	141	331	37464	22	10	109	36	3	10	23	311	13	44	254	216	10		190	16	5176	187		4582	407	103	78	77	423	628	2014	1	2	12	329	1490			2	9	24	27	1412	9	4	2	38141			2	55	141	331	37464	22	10	109																																																				
Archipiélago de San Andrés, Providencia y Santa Catalina	111331	34653	78488	11865	2116	1662	885	114	56	8	12	36	3278	563	509	2206	92	5		86	1	21030	228		20801	1	8	54	121	535	569	9696	2	74	11	368	912			8	8	30	29	814	23			64558			260	3200	3423	1241	55714	720			48	7	11	30	1269	335	129	805	61	4		56	1	1336	42		1293	1	8	53	120	494	567	8476	2	53	10	366	842			7	7	24	27	760	17			20864			35	25	943	706	19113	42			33	9	5	19	1895	191	378	1326	60	3		57		19604	186		19418			2	28	0	3	524	1	21	1	2	384			7	5	18	17	320	17			42316			225	3175	2438	514	35288	676			14	1
Atlántico	85788	85499	155	3234	2698	2692	38	66	38	4	11	23	380	59	74	247	130	9	1	108	12	7740	156	5	7245	334	49	94	96	1245	2318	9093	1	5	17	1136	1030			2	10	19	23	957	14	4	1	68292			48	43	132	341	67604	105	18	1	37	4	10	23	370	58	70	242	130	9	1	108	12	7724	155	3	7232	334	49	94	96	1240	2316	9047	1	5	17	1135	1027			2	10	19	23	954	14	4	1	68070			47	43	130	288	67438	105	18	1	3	2		1	7		4	3	1		1			2		2					16	0	0	40					35					1	4	30				136					2	42	92				9	2
Bogotá, D.C.	307336	307334	0	2256	5612	5611		13	143	13	57	73	5198	1019	2950	1229	362	7		348	7	29610	158		29019	433	431	184	92	10560	11784	42343	8	183	45	8983	1186		4	10	23	35	39	1065	7	3		245547		167	22	1921	553	4244	238611	23	6		142	13	57	72	5197	1019	2950	1228	362	7		348	7	29610	158		29019	433	431	184	92	10560	11784	42343	8	183	45	8983	1185		4	10	23	35	39	1064	7	3		245546		167	22	1921	553	4244	238610	23	6																																																					
Bolívar	365508	284882	81904	20673	5768	5472	413	87	124	13	38	73	6014	1848	1094	3072	274	19	1	239	15	45957	746	3	43900	1308	193	125	112	3636	11799	19129	5	43	23	2383	2147		1	14	31	61	52	1928	42	10	8	254434		1	1270	6980	5606	5512	234255	702	56	52	107	12	34	61	4127	1696	907	1524	228	19	1	193	15	19888	710	3	17878	1297	193	125	111	3596	11795	17565	4	30	23	2381	2015		1	11	28	55	44	1824	34	10	8	193328		1	1060	997	2154	1161	187618	229	56	52	26	6	2	18	1849	134	181	1534	52	1		51		25451	1		25450				27	0	0	916	1	13			225			4	4	7	12	187	11			57395			193	5982	3440	4320	42988	472			13	2
Boyacá	427815	427814	0	9457	10641	10641		19	190	23	65	102	7428	1392	2976	3060	482	12		456	14	35316	195		33367	1754	957	173	94	22816	4063	21749	10	277	40	3035	2656	1	3	34	79	107	65	2313	46	5	3	268625	2	69	925	2756	3974	7668	252953	226	47	5	190	23	65	102	7428	1392	2976	3060	482	12		456	14	35316	195		33367	1754	957	173	94	22816	4063	21749	10	277	40	3035	2656	1	3	34	79	107	65	2313	46	5	3	268624	2	69	925	2756	3974	7668	252952	226	47	5																																																				
Caldas	1040822	1040821	0	7435	8740	8740		23	158	16	52	90	15542	849	4530	10163	345	15		320	10	134546	1369		132257	920	755	208	94	18444	11954	78611	7	82	39	10563	2669	1	3	15	59	122	81	2318	54	11	5	940686	4	30	237	1006	11553	6672	920746	325	98	15	158	16	52	90	15542	849	4530	10163	345	15		320	10	134546	1369		132257	920	755	208	94	18444	11954	78611	7	82	39	10563	2669	1	3	15	59	122	81	2318	54	11	5	940685	4	30	237	1006	11553	6672	920745	325	98	15																																																			1	1
Caquetá	283373	283372	0	11629	10299	10299		17	75	9	21	45	1109	50	68	991	357	14		335	8	17646	480		15783	1383	349	115	71	2395	1435	6184	3	4	23	965	3154		1	8	25	66	51	2932	46	17	6	129716		1	60	63	1834	2007	125031	265	264	160	75	9	21	45	1109	50	68	991	357	14		335	8	17646	480		15783	1383	349	115	71	2395	1435	6184	3	4	23	965	3154		1	8	25	66	51	2932	46	17	6	129716		1	60	63	1834	2007	125031	265	264	160																																																			1	
Casanare	266176	266176	0	11212	5656	5656		18	61	6	12	43	2212	47	57	2108	243	12		215	16	31735	1358		25894	4483	138	97	87	840	4263	16189	2	23	18	3282	1975			3	15	38	39	1851	17	8	3	204744			11	74	516	2805	201157	113	21	19	61	6	12	43	2212	47	57	2108	243	12		215	16	31735	1358		25894	4483	138	97	87	840	4263	16189	2	23	18	3282	1975			3	15	38	39	1851	17	8	3	204744			11	74	516	2805	201157	113	21	19																																																			1	1
Cauca	301848	283413	16756	7196	11535	11256	521	75	180	18	59	103	5944	701	3007	2236	638	18		606	14	41680	1084		39780	816	1017	145	117	6198	2972	13702	6	21	32	2157	3221		5	31	66	134	110	2800	61	6	8	216162		71	296	1756	3127	2720	207375	759	28	30	177	18	59	100	3752	696	905	2151	632	18		600	14	37796	758		36223	815	1014	145	105	6186	2970	13128	6	21	32	2157	3144		5	29	66	133	104	2737	56	6	8	201018		71	277	1509	2989	2641	192786	689	26	30	8	2	1	5	1944	4	1860	80	19	3		16		3532	79		3453			1	33	0	2	349					163			3		5	8	141	6			14239			18		90	64	14031	36			7	2
Cesar	101495	101464	0	1595	3571	3569		17	79	10	30	39	2139	293	464	1382	207	10		183	14	12186	355		11263	568	205	97	85	1294	767	5387	3	21	18	485	1573		2	10	22	40	39	1429	23	5	3	79506		5	173	726	1777	969	75635	165	45	11	79	10	30	39	2138	293	463	1382	205	10		181	14	12175	355		11252	568	205	97	85	1294	767	5386	3	21	18	485	1573		2	10	22	40	39	1429	23	5	3	79482		5	173	726	1777	969	75611	165	45	11																																																				
Chocó	383284	337716	28301	16514	11999	11398	838	176	239	25	62	152	8618	1712	1462	5444	640	26	1	596	17	41612	2262	1	36689	2660	1082	120	119	12364	2096	25184	2	17	19	1212	3771		2	24	64	139	121	3289	105	14	13	242902		9	2447	731	8277	9097	220432	1368	317	224	221	25	58	138	7226	850	1173	5203	603	25	1	560	17	31989	1315	1	28068	2605	1078	117	113	12281	2072	22376	1	5	19	1211	3489		2	22	63	133	111	3039	92	14	13	209893		9	2347	507	6249	8468	190569	1213	313	218	27	6	2	19	1212	860	204	148	51	6		45		7779	926		6853			5	37	0	14	1168	1	12			406			6	1	11	11	360	17			17404			93	207	1767	167	15024	146			9	1
Cundinamarca	1110577	1110550	0	13980	15480	15480		22	248	32	72	144	21264	3185	8977	9102	708	20		673	15	104526	5997		97119	1410	1200	256	106	42534	66754	63122	9	680	52	49072	3061		5	29	78	115	85	2680	59	8	2	777049		507	477	6789	12091	12426	743981	666	107	5	248	32	72	144	21262	3185	8975	9102	708	20		673	15	104519	5997		97114	1408	1200	256	106	42527	66754	63122	9	680	52	49072	3061		5	29	78	115	85	2680	59	8	2	777040		507	477	6789	12089	12426	743974	666	107	5																																																			3	2
Córdoba	145509	144537	491	6495	3886	3865	65	52	90	13	22	55	2854	301	624	1929	204	16		174	14	15597	549		14070	978	119	104	105	1426	2120	18867	3	39	18	1514	1683	1		12	16	41	41	1535	24	7	5	115139	1		456	60	493	1328	112554	195	28	23	87	12	21	54	2753	299	621	1833	199	15		170	14	15497	547		13972	978	119	104	105	1423	2120	18645	3	39	18	1514	1672	1		11	16	40	38	1531	22	7	5	114216	1		454	60	490	1252	111764	143	28	23	7	2	1	4	97	2	3	92	7	1		6		8	2		6				20	0	0	157					49			1		3	5	37	3			463			2		3	56	350	52			9	1
Guainía	103629	103628	0	1316	3780	3779		12	24	3	3	18	175	4	14	157	176	12		157	7	10264	449		9501	314	43	36	56	176	440	3634	2	3	9	254	1352			2	4	16	20	1297	4	3	5	60369			4	14	837	1172	58284	9	19	16	24	3	3	18	175	4	14	157	176	12		157	7	10264	449		9501	314	43	36	56	176	440	3634	2	3	9	254	1352			2	4	16	20	1297	4	3	5	60369			4	14	837	1172	58284	9	19	16																																																				
Guaviare	74104	74103	0	1547	4305	4305		13	26	3	4	19	102	10	16	76	177	9		162	6	7509	193		6945	371	78	48	60	420	570	2863	2	8	6	346	1712			1	2	20	20	1649	8	7	4	54603			13	3	478	544	53455	21	59	18	26	3	4	19	102	10	16	76	177	9		162	6	7509	193		6945	371	78	48	60	420	570	2863	2	8	6	346	1712			1	2	20	20	1649	8	7	4	54603			13	3	478	544	53455	21	59	18																																																				
Huila	236910	236897	0	5522	6727	6726		14	89	11	27	51	3655	175	302	3178	337	11		312	14	24348	176		23362	810	501	124	77	6204	3782	11686	8	1464	32	1909	1964		4	8	32	60	66	1751	32	8	2	184246		16	56	675	2117	3669	177425	192	89	6	89	11	27	51	3655	175	302	3178	337	11		312	14	24348	176		23362	810	501	124	77	6203	3782	11686	8	1464	32	1909	1964		4	8	32	60	66	1751	32	8	2	184239		16	56	675	2117	3669	177418	192	89	6																																																				
La Guajira	321291	315944	3582	14770	4461	3958	621	104	83	14	24	45	7345	114	2115	5116	227	16	1	196	14	34149	685	1	31548	1915	148	79	123	846	2947	42237	1	2	18	2776	1812		1	9	29	51	45	1646	29	2		256333		1	74	279	471	3806	251440	258	4		74	13	23	38	7104	75	2011	5018	204	16	1	173	14	33552	592	1	31060	1899	148	79	123	846	2945	41472	1	2	18	2774	1575		1	8	26	48	40	1432	18	2		252619		1	50	221	446	3580	248103	214	4		17	2	4	11	129	39	12	78	33	3		30		211	38		173			1	29	0	1	574					312			2	3	5	9	281	12			2020			24	3	24	207	1718	44			11	2
Magdalena	808798	757287	55923	28036	11216	10267	1239	146	174	27	55	92	23576	832	4862	17882	417	17	1	385	14	105130	1361	23	101639	2107	551	155	132	46343	6086	79518	7	64	25	2955	2679		4	18	52	80	70	2399	50	3	3	610312		13	921	6703	14110	24057	563495	969	33	11	162	27	51	84	22249	799	4539	16911	381	17	1	349	14	87638	1342	15	84179	2102	550	155	132	46302	6076	79348	6	22	25	2954	2401		4	17	49	65	62	2159	39	3	3	572448		13	628	4050	12745	23547	530683	738	33	11	33	7	5	21	1278	13	308	957	66	3	1	62		17327	4	8	17315				20	0	0	123	2	42			423			4	4	20	12	371	12			36765			264	2632	1360	493	31785	231			13	2
Meta	803405	803403	0	15617	18254	18253		23	259	36	83	140	4454	166	2304	1984	630	26		587	17	84397	903		75718	7776	2013	176	101	8786	10293	48861	4	32	34	8984	4356	1	4	52	122	173	116	3787	66	18	15	616033	1	115	173	570	5857	8328	599559	1132	225	68	259	36	83	140	4454	166	2304	1984	630	26		587	17	84397	903		75718	7776	2013	176	101	8786	10293	48861	4	32	34	8984	4356	1	4	52	122	173	116	3787	66	18	15	616033	1	115	173	570	5857	8328	599559	1132	225	68																																																			1	1
Nariño	637221	619036	13899	14347	10080	9841	440	115	162	14	61	87	9490	296	1949	7245	423	15		398	10	45004	172		43657	1175	589	140	112	15467	2049	15104	5	11	24	1202	2606		5	18	53	92	88	2294	42	9	5	316235		230	302	1262	4928	3644	304118	1052	682	17	157	14	60	83	9196	296	1899	7001	420	14		396	10	44852	171		43506	1175	589	140	107	15466	2022	13460	5	11	24	1202	2518		5	15	53	90	87	2214	40	9	5	311036		230	288	1262	4914	3558	299066	1019	682	17	11	3		8	290		46	244	4	1		3		15	1		14			5	33	0	27	1441					147			3		3	4	134	3			3933			14		14	70	3802	33			4	1
Norte de Santander	71237	71237	0	1281	6675	6675		12	137	18	52	67	1104	64	538	502	391	11		366	14	4106	39		3960	107	555	113	75	2558	565	2234	6	17	27	284	1988		2	16	42	64	43	1782	30	4	5	35570		4	57	506	752	614	33463	154	8	12	137	18	52	67	1104	64	538	502	391	11		366	14	4106	39		3960	107	555	113	75	2558	565	2234	6	17	27	284	1988		2	16	42	64	43	1782	30	4	5	35570		4	57	506	752	614	33463	154	8	12																																																				
Putumayo	262163	262145	0	2578	8030	8024		14	96	7	34	55	3007	70	392	2545	435	16		410	9	33745	380		30449	2916	330	92	77	1712	2156	13199	3	5	19	1786	2583		5	7	21	63	57	2388	28	11	2	221737		177	18	79	3412	3599	213780	601	55	15	96	7	34	55	3007	70	392	2545	430	16		405	9	33734	380		30438	2916	329	92	77	1708	2156	13199	3	5	19	1786	2583		5	7	21	63	57	2388	28	11	2	221736		177	18	79	3412	3599	213779	601	55	15																																																				
Quindío	273203	273203	0	4276	4869	4869		12	82	7	26	49	3419	232	948	2239	233	11		214	8	29479	381		28606	492	372	133	70	4551	4039	16884	5	13	25	3250	1565		2	4	37	68	44	1380	22	6	2	222124		15	118	1030	1625	2042	217101	155	36	2	82	7	26	49	3419	232	948	2239	233	11		214	8	29479	381		28606	492	372	133	70	4551	4039	16884	5	13	25	3250	1565		2	4	37	68	44	1380	22	6	2	222124		15	118	1030	1625	2042	217101	155	36	2																																																				
Risaralda	672696	672682	0	3118	7401	7399		19	133	11	39	83	22169	519	5197	16453	390	16		362	12	90150	589		87987	1574	582	123	79	23682	5598	40213	5	73	30	5203	2099		2	21	47	92	74	1827	29	7		590302		17	589	3504	13181	14950	557870	145	46		133	11	39	83	22169	519	5197	16453	390	16		362	12	90148	589		87985	1574	582	123	79	23682	5598	40213	5	73	30	5203	2098		2	21	47	92	74	1826	29	7		590298		17	589	3504	13181	14950	557866	145	46																																																				1	1
Santander	493137	493136	0	12452	12575	12575		19	247	37	90	120	9558	1701	4129	3728	546	19	1	512	14	44281	446	3	41027	2805	1122	211	98	15498	5219	27452	12	100	39	3264	3108		3	43	98	127	77	2672	71	10	7	322244		25	1354	2542	9058	5060	302691	837	635	42	247	37	90	120	9558	1701	4129	3728	546	19	1	512	14	44281	446	3	41027	2805	1122	211	98	15498	5219	27452	12	100	39	3264	3108		3	43	98	127	77	2672	71	10	7	322243		25	1354	2542	9058	5060	302690	837	635	42																																																			1	1
Sucre	108733	79866	5795	7407	3134	2973	222	108	61	8	19	34	1147	106	404	637	155	12	1	129	13	9267	183	4	8672	408	72	100	94	1012	3066	9677	3	19	18	1021	1296			6	16	21	24	1203	18	4	4	76396			132	80	347	828	74878	104	12	15	57	8	17	32	1091	104	362	625	148	12	1	122	13	6050	180	4	5464	402	70	100	93	985	3065	6588	3	19	18	1021	1198			6	15	21	21	1114	13	4	4	51378			132	77	325	550	50171	97	11	15	11	2	1	8	32	2	21	9	6			6		7			7				19	0	0	1932					156				1	1	6	143	4	1		5338				3	2	95	5231	6	1		11	2
Tolima	609259	609258	0	32388	7944	7944		17	128	19	31	78	11094	434	5429	5231	322	15	1	293	13	56148	1050	2	52919	2177	612	152	89	16171	9745	30386	6	568	29	7532	2246	1	2	12	44	89	58	1995	39	3	3	425154	5	10	357	584	9779	5211	408933	228	27	20	128	19	31	78	11094	434	5429	5231	322	15	1	293	13	56148	1050	2	52919	2177	612	152	89	16171	9745	30386	6	568	29	7532	2246	1	2	12	44	89	58	1995	39	3	3	425154	5	10	357	584	9779	5211	408933	228	27	20																																																			1	1
Valle del Cauca	1473130	1462482	8799	25612	16557	15684	1182	163	267	29	81	157	11424	1055	2451	7918	738	25		697	16	178554	637		168916	9001	1537	239	127	26581	17221	93775	8	200	43	13279	4171		3	62	109	212	137	3526	96	15	10	1233632		29	1077	2478	6146	21003	1201612	600	456	228	246	27	80	139	10966	1049	2427	7490	700	22		663	15	178164	615		168607	8942	1534	235	120	26479	17193	93237	8	200	43	13278	3812		3	55	100	178	123	3243	84	15	10	1226459		29	978	2455	5835	20932	1194982	573	453	219	29	3	2	24	475	4	56	415	34	4		29	1	148	13		134	1		4	35	0	18	399					468			8	8	33	18	388	13			5758			97	16	263	46	5312	24			10	2
Vaupés	149825	149825	0	1158	6158	6158		12	31	1	4	26	121	1	13	107	228	9		211	8	18089	730		16825	534	141	40	63	689	386	4860	1	2	7	271	2014			2	6	21	29	1926	13	11	4	112622			11	20	1318	2247	108879	37	67	34	31	1	4	26	121	1	13	107	228	9		211	8	18089	730		16825	534	141	40	63	689	386	4860	1	2	7	271	2014			2	6	21	29	1926	13	11	4	112622			11	20	1318	2247	108879	37	67	34																																																				
Vichada	95603	95603	0	2934	4499	4499		17	42	5	9	28	789	132	262	395	203	15		172	16	8557	357		7210	990	63	46	66	356	561	2994	1	2	12	514	1639		1	2	6	22	23	1563	10	6	4	50243		1	4	23	947	938	48160	16	15	12	42	5	9	28	789	132	262	395	203	15		172	16	8557	357		7210	990	63	46	66	356	561	2994	1	2	12	514	1639		1	2	6	22	23	1563	10	6	4	50243		1	4	23	947	938	48160	16	15	12																																																				
