,publishingOrgKey,gbifID,species
0,0363cbd4-f666-455e-8e86-0bbddcf51950,412,86
1,04481953-6112-489f-bb8d-9703d787e3ea,1,1
2,061b4f20-f241-11da-a328-b8a03c50a862,4,4
3,0674aea0-a7e1-11d8-9534-b8a03c50a862,21,11
4,06f46c98-9794-4d96-a014-aecdf24dbd7e,8,3
5,06fcbbf0-0562-11d8-b851-b8a03c50a862,1,1
6,0870a77b-587c-4369-a8ed-bc3d347b8e1c,5,3
7,0c0c7309-6a47-4760-9f5c-a48f6d354f75,2,0
8,0dc9c7a0-b5c6-11d9-a0b8-b8a03c50a862,4,2
9,0e2f2e28-7790-4c82-b8fb-6ef7b4c764e2,6653,389
10,10980920-6dad-11da-ad13-b8a03c50a862,1,0
11,121b1f00-66de-484d-9fb3-32bb07585840,8,2
12,182287da-fe0f-457f-ac06-2b8f4c7680fd,3,1
13,19456090-b49a-11d8-abeb-b8a03c50a862,99,68
14,1deb09e1-ded6-469a-a46e-f6329cb03b6a,25,3
15,1ef55060-54da-11dd-9d47-b8a03c50a862,50,4
16,1f00d75c-f6fc-4224-a595-975e82d7689c,155,80
17,1f55bd0a-6ebe-49a1-8a9c-9258702b6f46,1775,450
18,23539a57-1347-4dd3-af2a-cf9478563baa,18,5
19,23fe61fe-622d-4523-ae45-8c931f22c534,30,1
20,2437c128-bf8c-4f53-b668-da95fb2e40b7,19,16
21,247b85e0-4e6b-46d1-b1c8-47b00bb8ced7,3,3
22,256035fe-75ff-4a7c-94bc-86af590c9050,5,0
23,28eb1a3f-1c15-4a95-931a-4af90ecb574d,1010,555
24,2a7e3080-28a9-11dd-97cd-b8a03c50a862,73379,2978
25,2cd829bb-b713-433d-99cf-64bef11e5b3e,18,12
26,2d6267a0-0561-11d8-b851-b8a03c50a862,5,3
27,2e167bb0-4441-11db-9ba2-b8a03c50a862,16,9
28,2e4af590-37d0-11d9-8439-b8a03c50a862,8,3
29,2e7df380-8356-4533-bcb3-5459e23c794e,1,1
30,2e7ea925-e11c-451c-9841-0a8e85e5c5dc,50,2
31,2fff5d0c-6bbd-432d-8832-cc4e307a267f,39,14
32,30ff48bd-4dd1-429d-a5a5-348c8e5fbfb1,40,1
33,315127e0-d7bb-11db-9885-b8a03c50a862,11,0
34,32e82a64-c9b4-4b2f-9fbd-d446309b973f,1,1
35,34770310-601a-43e0-84fb-ed81661c2d00,2,2
36,352bdfe0-c57b-11dd-a8eb-b8a03c50a862,16,1
37,396d5f30-dea9-11db-8ab4-b8a03c50a862,1166,351
38,3988de20-0560-11d8-b851-b8a03c50a862,1,1
39,3c6ad080-bdbe-11da-ac59-b8a03c50a862,6,1
40,3ead5cf3-2840-482e-bbd9-76380825be63,5,4
41,4205110f-3f0f-40d8-bd0f-2fa71bc827b5,47,18
42,43587ad0-bafb-11d9-8e53-b8a03c50a862,1,1
43,43a26bbf-466a-4335-96cc-01d0656c614a,93,65
44,478a9e81-e716-42dc-a68d-03487953a32e,596,168
45,485ff490-e3b7-11db-9acc-b8a03c50a862,153,117
46,493fe050-055d-11d8-b84f-b8a03c50a862,2950,71
47,4c415e40-1e21-11de-9e40-a0d6ecebb8bf,181,125
48,4cadac10-3e7b-11d9-8439-b8a03c50a862,1,1
49,4e11d750-bafb-11d9-8e53-b8a03c50a862,5,4
50,4fd82480-ea1c-11da-8db4-b8a03c50a862,52,24
51,520e3c81-7de2-4ef3-9b36-11f3bdad76a9,1,1
52,57254bd0-8256-11d8-b7ed-b8a03c50a862,225,126
53,58c7e325-82fc-446d-9406-851b4d357db7,181,105
54,5a45153b-bdf9-44ae-b7a7-e3261896540b,57,33
55,5ab24120-de25-11dc-9a41-b8a03c50a862,41,22
56,5ffa575c-fcd4-4583-9611-545f67b04316,1239,4
57,60545be9-4f28-4245-b4b4-07635c8dfa54,1,1
58,610414e0-8040-11d9-8294-b8a03c50a862,4,1
59,66522820-055c-11d8-b84e-b8a03c50a862,141,64
60,6c147991-c3bf-453d-a778-3bea9a534804,472,246
61,6e1cad80-bdf5-11d8-84ea-b8a03c50a862,2,0
62,6ea87510-0561-11d8-b851-b8a03c50a862,13,4
63,6f3ccc65-0a54-4e65-ae7e-13b92d618e7c,62,50
64,750a8724-fa66-4c27-b645-bd58ac5ee010,34,1
65,76513b28-548d-480a-8859-bd7f45f8724b,12,4
66,77c64839-4c99-4a40-beb3-cd16afc23540,93,29
67,780c7ebb-c576-4eb8-ab57-3cc2dddffae2,6,0
68,79324e30-d4c7-11d8-bf69-b8a03c50a862,1,1
69,7a079928-aee9-418a-b083-6152d01c78d6,40,3
70,7b8aff00-a9f8-11d8-944b-b8a03c50a862,2262,753
71,7ce8aef0-9e92-11dc-8738-b8a03c50a862,102,43
72,7d91f9bd-f6cd-48e3-ba81-3c228cf5e13a,1,1
73,80960f60-ad5e-11da-9c37-b8a03c50a862,18,17
74,814cdfb5-d4f8-4453-815f-ea5df98e76bf,1,1
75,831c8ca0-3806-4796-b8a3-fb5f15813749,1,1
76,838537fc-4aeb-4980-8b58-97fbdcd1d91a,27,24
77,83e105d0-1e21-11de-85d0-fe7fa1df8ee2,11,4
78,8483a1f0-1032-11db-ae00-b8a03c50a862,14,2
79,85be57ed-f187-49c9-b7ff-eaa622e06217,29,9
80,883ee5d0-9177-423d-a636-0284e8a4de46,11,6
81,8e1a97a0-3ca8-11d9-8439-b8a03c50a862,4,4
82,8edbbde0-055e-11d8-b850-b8a03c50a862,93,56
83,8f9a6e03-a0ee-4a60-a08f-32463f36adeb,23,10
84,90fd6680-349f-11d8-aa2d-b8a03c50a862,3907,1573
85,927f1e70-cf74-11d8-bf68-b8a03c50a862,4,3
86,92f51af1-e917-49bc-a8ed-014ed3a77bec,148,0
87,9630292c-c8ef-4efa-adda-399638be3b19,1,1
88,98e934b0-5f31-11de-b67e-b8a03c50a862,32,29
89,99ea0c90-61e5-11dc-a64c-b8a03c50a862,3,2
90,9d77fdeb-100f-4b29-98ad-4effdd824457,1226,623
91,a3c228d0-3110-11db-abb8-b8a03c50a862,1080,36
92,a41250f0-7c3e-11d8-a19c-b8a03c50a862,106,73
93,a6deb94a-2c40-47ec-a678-3d502cd42bc2,1,1
94,a7e6d0ba-9e3d-4be2-b3ac-2c5e812e0a31,1,1
95,a8144f37-5ff7-4137-9400-94b5b2ea4ec4,1,1
96,ab5c0b99-5af3-4958-b03c-0b7e85481cc1,4,4
97,ad3f9c5f-5021-45a3-a7c4-3e64895f6f79,1204,42
98,ada9d123-ddb4-467d-8891-806ea8d94230,152,20
99,ae447c50-b8a8-11d8-92a4-b8a03c50a862,1148,525
100,af00f590-cb78-11d9-b772-b8a03c50a862,1,1
101,afa44940-5a60-11d9-bbdd-b8a03c50a862,10,6
102,b36f3505-f2d9-499f-a669-fa418a127b9d,1,0
103,b459e790-0d3c-11d9-8431-b8a03c50a862,212,117
104,b4640710-8e03-11d8-b956-b8a03c50a862,184,102
105,b554c320-0560-11d8-b851-b8a03c50a862,1243,31
106,b6f05cf0-43ce-11d9-8439-b8a03c50a862,1,1
107,b711353c-44d7-4e8b-90c5-16fea0d247e0,172,43
108,b8b274e0-3216-48b8-afea-5616ec326ce1,19,6
109,b8cd2cdb-ee95-409c-b1b8-e09bab4f9a70,770,407
110,bb646dff-a905-4403-a49b-6d378c2cf0d9,24,20
111,bc092ff0-02e4-11dc-991f-b8a03c50a862,4193,1400
112,bc709e2f-6eb4-4cbe-a295-e12eed0679f2,20,12
113,bd561840-efdc-11d9-a329-b8a03c50a862,1,1
114,c0d9c91a-0f83-4819-bf7e-bb5e1184eb6b,17,12
115,c1da06f0-580e-11dc-8a9e-b8a03c50a862,168,36
116,c3367060-856b-11d9-8486-b8a03c50a862,2,2
117,c76cf030-2a95-11da-9cc1-b8a03c50a862,8,5
118,c803f6f5-2c6a-4b41-8c15-768d48ef1c8c,510,145
119,c8f840a3-4949-4e18-82e9-5771c3e57129,11,0
120,c96dd940-165d-11da-a5ec-b8a03c50a862,155,38
121,cccff716-2694-4209-9f9e-2f7a484465a0,1692,544
122,ccd1ddc0-6c21-11de-8224-b8a03c50a862,271,55
123,d073b448-6b80-4364-8c38-18d08b88797f,2,1
124,dc282b9d-8f3b-4197-b174-ba5272721a6f,8294,533
125,e0455781-2311-4b5b-8cc0-421d73e04f1b,229,0
126,e144e6ee-503e-4bd9-9eff-f2fc77473642,9,5
127,e1475b95-d1f7-4f3a-9f3e-e681676abb18,1,0
128,e2e717bf-551a-4917-bdc9-4fa0f342c530,74111,879
129,e3f07310-a215-11da-beae-b8a03c50a862,7,4
130,e8eada63-4a33-44aa-b2fd-4f71efb222a0,20,2
131,e97090cb-7731-41c7-ac24-31a841730654,1,1
132,eac88d99-9f6c-4031-8fc4-8088f0e0dfe7,31467,4524
133,eace4687-50e8-4f9a-829b-29ff8ff1fa8b,416,255
134,eba6daa8-0281-479e-aa2d-d78a2614db93,1,1
135,edd92410-ac77-11de-90e0-b8a03c50a862,15,12
136,efc2ae40-9880-11da-89b4-b8a03c50a862,1,1
137,efcf5460-a06a-11d9-8ec2-b8a03c50a862,1,0
138,f5c46d20-f1d2-11dd-b2d5-b8a03c50a862,4,0
139,f5fc4e61-b7a0-414b-ab68-b41cb23e7fdc,1,1
140,f6e2efc9-42a3-47ea-99c6-3eda8d653cc9,30,1
141,f7bf768e-d88d-489d-a263-dd07232bd9e4,104,6
142,f7f9717e-9e50-4a00-a30f-7b134390a566,176,153
143,f9b67ad0-9c9b-11d9-b9db-b8a03c50a862,173,72
144,fd0038d0-3e7b-11d9-8439-b8a03c50a862,11,5
145,fee3882f-5360-4f01-a1ca-767c48fa629c,1105,79
146,ff418020-1d67-11d9-8435-b8a03c50a862,58,26
147,ff90b050-c256-11db-b71b-b8a03c50a862,232,132
